^C:\USERS\JUSTIN\SOURCE\REPOS\OGRE3D BASE PROJECT\1 - SETUP BASICS\BASEAPPLICATION.CPP|C:\USERS\JUSTIN\SOURCE\REPOS\OGRE3D BASE PROJECT\1 - SETUP BASICS\TUTORIALAPPLICATION.CPP
C:\USERS\JUSTIN\SOURCE\REPOS\OGRE3D BASE PROJECT\1 - SETUP BASICS\DEBUG\VC142.PDB
C:\USERS\JUSTIN\SOURCE\REPOS\OGRE3D BASE PROJECT\1 - SETUP BASICS\DEBUG\VC142.IDB
C:\USERS\JUSTIN\SOURCE\REPOS\OGRE3D BASE PROJECT\1 - SETUP BASICS\DEBUG\BASEAPPLICATION.OBJ
^C:\USERS\JUSTIN\SOURCE\REPOS\OGRE3D BASE PROJECT\1 - SETUP BASICS\BASEAPPLICATION.CPP
C:\USERS\JUSTIN\SOURCE\REPOS\OGRE3D BASE PROJECT\1 - SETUP BASICS\DEBUG\BASEAPPLICATION.OBJ
^C:\USERS\JUSTIN\SOURCE\REPOS\OGRE3D BASE PROJECT\1 - SETUP BASICS\BASEAPPLICATION.CPP|C:\USERS\JUSTIN\SOURCE\REPOS\OGRE3D BASE PROJECT\1 - SETUP BASICS\PLANET.CPP|C:\USERS\JUSTIN\SOURCE\REPOS\OGRE3D BASE PROJECT\1 - SETUP BASICS\TUTORIALAPPLICATION.CPP
C:\USERS\JUSTIN\SOURCE\REPOS\OGRE3D BASE PROJECT\1 - SETUP BASICS\DEBUG\VC141.PDB
C:\USERS\JUSTIN\SOURCE\REPOS\OGRE3D BASE PROJECT\1 - SETUP BASICS\DEBUG\VC141.IDB
C:\USERS\JUSTIN\SOURCE\REPOS\OGRE3D BASE PROJECT\1 - SETUP BASICS\DEBUG\TUTORIALAPPLICATION.OBJ
C:\USERS\JUSTIN\SOURCE\REPOS\OGRE3D BASE PROJECT\1 - SETUP BASICS\DEBUG\BASEAPPLICATION.OBJ
C:\USERS\JUSTIN\SOURCE\REPOS\OGRE3D BASE PROJECT\1 - SETUP BASICS\DEBUG\VC142.PDB
C:\USERS\JUSTIN\SOURCE\REPOS\OGRE3D BASE PROJECT\1 - SETUP BASICS\DEBUG\VC142.IDB
^C:\USERS\JUSTIN\SOURCE\REPOS\OGRE3D BASE PROJECT\1 - SETUP BASICS\PLANET.CPP|C:\USERS\JUSTIN\SOURCE\REPOS\OGRE3D BASE PROJECT\1 - SETUP BASICS\TUTORIALAPPLICATION.CPP
C:\USERS\JUSTIN\SOURCE\REPOS\OGRE3D BASE PROJECT\1 - SETUP BASICS\DEBUG\VC142.PDB
C:\USERS\JUSTIN\SOURCE\REPOS\OGRE3D BASE PROJECT\1 - SETUP BASICS\DEBUG\VC142.IDB
C:\USERS\JUSTIN\SOURCE\REPOS\OGRE3D BASE PROJECT\1 - SETUP BASICS\DEBUG\TUTORIALAPPLICATION.OBJ
C:\USERS\JUSTIN\SOURCE\REPOS\OGRE3D BASE PROJECT\1 - SETUP BASICS\DEBUG\PLANET.OBJ
^C:\USERS\JUSTIN\SOURCE\REPOS\OGRE3D BASE PROJECT\1 - SETUP BASICS\PLANET.CPP
C:\USERS\JUSTIN\SOURCE\REPOS\OGRE3D BASE PROJECT\1 - SETUP BASICS\DEBUG\VC142.PDB
C:\USERS\JUSTIN\SOURCE\REPOS\OGRE3D BASE PROJECT\1 - SETUP BASICS\DEBUG\VC142.IDB
C:\USERS\JUSTIN\SOURCE\REPOS\OGRE3D BASE PROJECT\1 - SETUP BASICS\DEBUG\PLANET.OBJ
^C:\USERS\JUSTIN\SOURCE\REPOS\OGRE3D BASE PROJECT\1 - SETUP BASICS\TUTORIALAPPLICATION.CPP
C:\USERS\JUSTIN\SOURCE\REPOS\OGRE3D BASE PROJECT\1 - SETUP BASICS\DEBUG\VC142.PDB
C:\USERS\JUSTIN\SOURCE\REPOS\OGRE3D BASE PROJECT\1 - SETUP BASICS\DEBUG\VC142.IDB
C:\USERS\JUSTIN\SOURCE\REPOS\OGRE3D BASE PROJECT\1 - SETUP BASICS\DEBUG\TUTORIALAPPLICATION.OBJ
