^C:\USERS\JUSTIN\SOURCE\REPOS\OGRE3D BASE PROJECT\1 - SETUP BASICS\DEBUG\BASEAPPLICATION.OBJ|C:\USERS\JUSTIN\SOURCE\REPOS\OGRE3D BASE PROJECT\1 - SETUP BASICS\DEBUG\PLANET.OBJ|C:\USERS\JUSTIN\SOURCE\REPOS\OGRE3D BASE PROJECT\1 - SETUP BASICS\DEBUG\TUTORIALAPPLICATION.OBJ
C:\USERS\JUSTIN\SOURCE\REPOS\OGRE3D BASE PROJECT\DEBUG\1 - SETUP BASICS.EXE
C:\USERS\JUSTIN\SOURCE\REPOS\OGRE3D BASE PROJECT\DEBUG\1 - SETUP BASICS.ILK
C:\USERS\JUSTIN\SOURCE\REPOS\OGRE3D BASE PROJECT\DEBUG\1 - SETUP BASICS.PDB
