^C:\USERS\JUSTIN\SOURCE\REPOS\RPG PROJECT BASPRG3\SOURCE.CPP|C:\USERS\JUSTIN\SOURCE\REPOS\RPG PROJECT BASPRG3\UNIT.CPP
C:\USERS\JUSTIN\SOURCE\REPOS\RPG PROJECT BASPRG3\DEBUG\VC142.PDB
C:\USERS\JUSTIN\SOURCE\REPOS\RPG PROJECT BASPRG3\DEBUG\VC142.IDB
C:\USERS\JUSTIN\SOURCE\REPOS\RPG PROJECT BASPRG3\DEBUG\UNIT.OBJ
C:\USERS\JUSTIN\SOURCE\REPOS\RPG PROJECT BASPRG3\DEBUG\SOURCE.OBJ
^C:\USERS\JUSTIN\SOURCE\REPOS\RPG PROJECT BASPRG3\PLAYER.CPP|C:\USERS\JUSTIN\SOURCE\REPOS\RPG PROJECT BASPRG3\SOURCE.CPP|C:\USERS\JUSTIN\SOURCE\REPOS\RPG PROJECT BASPRG3\UNIT.CPP
C:\USERS\JUSTIN\SOURCE\REPOS\RPG PROJECT BASPRG3\DEBUG\VC142.PDB
C:\USERS\JUSTIN\SOURCE\REPOS\RPG PROJECT BASPRG3\DEBUG\VC142.IDB
C:\USERS\JUSTIN\SOURCE\REPOS\RPG PROJECT BASPRG3\DEBUG\UNIT.OBJ
C:\USERS\JUSTIN\SOURCE\REPOS\RPG PROJECT BASPRG3\DEBUG\SOURCE.OBJ
C:\USERS\JUSTIN\SOURCE\REPOS\RPG PROJECT BASPRG3\DEBUG\PLAYER.OBJ
^C:\USERS\JUSTIN\SOURCE\REPOS\RPG PROJECT BASPRG3\MONSTER.CPP|C:\USERS\JUSTIN\SOURCE\REPOS\RPG PROJECT BASPRG3\PLAYER.CPP|C:\USERS\JUSTIN\SOURCE\REPOS\RPG PROJECT BASPRG3\SOURCE.CPP|C:\USERS\JUSTIN\SOURCE\REPOS\RPG PROJECT BASPRG3\UNIT.CPP
C:\USERS\JUSTIN\SOURCE\REPOS\RPG PROJECT BASPRG3\DEBUG\VC142.PDB
C:\USERS\JUSTIN\SOURCE\REPOS\RPG PROJECT BASPRG3\DEBUG\VC142.IDB
C:\USERS\JUSTIN\SOURCE\REPOS\RPG PROJECT BASPRG3\DEBUG\UNIT.OBJ
C:\USERS\JUSTIN\SOURCE\REPOS\RPG PROJECT BASPRG3\DEBUG\SOURCE.OBJ
C:\USERS\JUSTIN\SOURCE\REPOS\RPG PROJECT BASPRG3\DEBUG\PLAYER.OBJ
C:\USERS\JUSTIN\SOURCE\REPOS\RPG PROJECT BASPRG3\DEBUG\MONSTER.OBJ
^C:\USERS\JUSTIN\SOURCE\REPOS\RPG PROJECT BASPRG3\MONSTER.CPP
C:\USERS\JUSTIN\SOURCE\REPOS\RPG PROJECT BASPRG3\DEBUG\VC142.PDB
^C:\USERS\JUSTIN\SOURCE\REPOS\RPG PROJECT BASPRG3\PLAYER.CPP
C:\USERS\JUSTIN\SOURCE\REPOS\RPG PROJECT BASPRG3\DEBUG\VC142.PDB
^C:\USERS\JUSTIN\SOURCE\REPOS\RPG PROJECT BASPRG3\SOURCE.CPP
C:\USERS\JUSTIN\SOURCE\REPOS\RPG PROJECT BASPRG3\DEBUG\VC142.PDB
^C:\USERS\JUSTIN\SOURCE\REPOS\RPG PROJECT BASPRG3\UNIT.CPP
C:\USERS\JUSTIN\SOURCE\REPOS\RPG PROJECT BASPRG3\DEBUG\VC142.PDB
