^C:\USERS\JUSTIN\SOURCE\REPOS\OGRE3D BASE PROJECT\1 - SETUP BASICS\BASEAPPLICATION.CPP
C:\USERS\JUSTIN\SOURCE\REPOS\OGRE3D BASE PROJECT\1 - SETUP BASICS\BASEAPPLICATION.H
C:\OGRESDK_1_9\INCLUDE\OGRE\OGRECAMERA.H
C:\OGRESDK_1_9\INCLUDE\OGRE\OGREPREREQUISITES.H
C:\OGRESDK_1_9\INCLUDE\OGRE\OGREPLATFORM.H
C:\OGRESDK_1_9\INCLUDE\OGRE\OGRECONFIG.H
C:\OGRESDK_1_9\INCLUDE\OGRE\OGREBUILDSETTINGS.H
C:\PROGRAM FILES (X86)\MICROSOFT VISUAL STUDIO\2019\COMMUNITY\VC\TOOLS\MSVC\14.21.27702\INCLUDE\STRING
C:\PROGRAM FILES (X86)\MICROSOFT VISUAL STUDIO\2019\COMMUNITY\VC\TOOLS\MSVC\14.21.27702\INCLUDE\XSTRING
C:\PROGRAM FILES (X86)\MICROSOFT VISUAL STUDIO\2019\COMMUNITY\VC\TOOLS\MSVC\14.21.27702\INCLUDE\IOSFWD
C:\PROGRAM FILES (X86)\MICROSOFT VISUAL STUDIO\2019\COMMUNITY\VC\TOOLS\MSVC\14.21.27702\INCLUDE\YVALS.H
C:\PROGRAM FILES (X86)\MICROSOFT VISUAL STUDIO\2019\COMMUNITY\VC\TOOLS\MSVC\14.21.27702\INCLUDE\YVALS_CORE.H
C:\PROGRAM FILES (X86)\MICROSOFT VISUAL STUDIO\2019\COMMUNITY\VC\TOOLS\MSVC\14.21.27702\INCLUDE\CRTDEFS.H
C:\PROGRAM FILES (X86)\MICROSOFT VISUAL STUDIO\2019\COMMUNITY\VC\TOOLS\MSVC\14.21.27702\INCLUDE\VCRUNTIME.H
C:\PROGRAM FILES (X86)\MICROSOFT VISUAL STUDIO\2019\COMMUNITY\VC\TOOLS\MSVC\14.21.27702\INCLUDE\SAL.H
C:\PROGRAM FILES (X86)\MICROSOFT VISUAL STUDIO\2019\COMMUNITY\VC\TOOLS\MSVC\14.21.27702\INCLUDE\CONCURRENCYSAL.H
C:\PROGRAM FILES (X86)\MICROSOFT VISUAL STUDIO\2019\COMMUNITY\VC\TOOLS\MSVC\14.21.27702\INCLUDE\VADEFS.H
C:\PROGRAM FILES (X86)\WINDOWS KITS\10\INCLUDE\10.0.17763.0\UCRT\CORECRT.H
C:\PROGRAM FILES (X86)\MICROSOFT VISUAL STUDIO\2019\COMMUNITY\VC\TOOLS\MSVC\14.21.27702\INCLUDE\XKEYCHECK.H
C:\PROGRAM FILES (X86)\WINDOWS KITS\10\INCLUDE\10.0.17763.0\UCRT\CRTDBG.H
C:\PROGRAM FILES (X86)\MICROSOFT VISUAL STUDIO\2019\COMMUNITY\VC\TOOLS\MSVC\14.21.27702\INCLUDE\VCRUNTIME_NEW_DEBUG.H
C:\PROGRAM FILES (X86)\MICROSOFT VISUAL STUDIO\2019\COMMUNITY\VC\TOOLS\MSVC\14.21.27702\INCLUDE\VCRUNTIME_NEW.H
C:\PROGRAM FILES (X86)\MICROSOFT VISUAL STUDIO\2019\COMMUNITY\VC\TOOLS\MSVC\14.21.27702\INCLUDE\USE_ANSI.H
C:\PROGRAM FILES (X86)\MICROSOFT VISUAL STUDIO\2019\COMMUNITY\VC\TOOLS\MSVC\14.21.27702\INCLUDE\CSTDIO
C:\PROGRAM FILES (X86)\WINDOWS KITS\10\INCLUDE\10.0.17763.0\UCRT\STDIO.H
C:\PROGRAM FILES (X86)\WINDOWS KITS\10\INCLUDE\10.0.17763.0\UCRT\CORECRT_WSTDIO.H
C:\PROGRAM FILES (X86)\WINDOWS KITS\10\INCLUDE\10.0.17763.0\UCRT\CORECRT_STDIO_CONFIG.H
C:\PROGRAM FILES (X86)\MICROSOFT VISUAL STUDIO\2019\COMMUNITY\VC\TOOLS\MSVC\14.21.27702\INCLUDE\CSTRING
C:\PROGRAM FILES (X86)\WINDOWS KITS\10\INCLUDE\10.0.17763.0\UCRT\STRING.H
C:\PROGRAM FILES (X86)\WINDOWS KITS\10\INCLUDE\10.0.17763.0\UCRT\CORECRT_MEMORY.H
C:\PROGRAM FILES (X86)\WINDOWS KITS\10\INCLUDE\10.0.17763.0\UCRT\CORECRT_MEMCPY_S.H
C:\PROGRAM FILES (X86)\WINDOWS KITS\10\INCLUDE\10.0.17763.0\UCRT\ERRNO.H
C:\PROGRAM FILES (X86)\MICROSOFT VISUAL STUDIO\2019\COMMUNITY\VC\TOOLS\MSVC\14.21.27702\INCLUDE\VCRUNTIME_STRING.H
C:\PROGRAM FILES (X86)\WINDOWS KITS\10\INCLUDE\10.0.17763.0\UCRT\CORECRT_WSTRING.H
C:\PROGRAM FILES (X86)\MICROSOFT VISUAL STUDIO\2019\COMMUNITY\VC\TOOLS\MSVC\14.21.27702\INCLUDE\CWCHAR
C:\PROGRAM FILES (X86)\WINDOWS KITS\10\INCLUDE\10.0.17763.0\UCRT\WCHAR.H
C:\PROGRAM FILES (X86)\WINDOWS KITS\10\INCLUDE\10.0.17763.0\UCRT\CORECRT_WCONIO.H
C:\PROGRAM FILES (X86)\WINDOWS KITS\10\INCLUDE\10.0.17763.0\UCRT\CORECRT_WCTYPE.H
C:\PROGRAM FILES (X86)\WINDOWS KITS\10\INCLUDE\10.0.17763.0\UCRT\CORECRT_WDIRECT.H
C:\PROGRAM FILES (X86)\WINDOWS KITS\10\INCLUDE\10.0.17763.0\UCRT\CORECRT_WIO.H
C:\PROGRAM FILES (X86)\WINDOWS KITS\10\INCLUDE\10.0.17763.0\UCRT\CORECRT_SHARE.H
C:\PROGRAM FILES (X86)\WINDOWS KITS\10\INCLUDE\10.0.17763.0\UCRT\CORECRT_WPROCESS.H
C:\PROGRAM FILES (X86)\WINDOWS KITS\10\INCLUDE\10.0.17763.0\UCRT\CORECRT_WSTDLIB.H
C:\PROGRAM FILES (X86)\WINDOWS KITS\10\INCLUDE\10.0.17763.0\UCRT\CORECRT_WTIME.H
C:\PROGRAM FILES (X86)\WINDOWS KITS\10\INCLUDE\10.0.17763.0\UCRT\SYS\STAT.H
C:\PROGRAM FILES (X86)\WINDOWS KITS\10\INCLUDE\10.0.17763.0\UCRT\SYS\TYPES.H
C:\PROGRAM FILES (X86)\MICROSOFT VISUAL STUDIO\2019\COMMUNITY\VC\TOOLS\MSVC\14.21.27702\INCLUDE\XSTDDEF
C:\PROGRAM FILES (X86)\MICROSOFT VISUAL STUDIO\2019\COMMUNITY\VC\TOOLS\MSVC\14.21.27702\INCLUDE\CSTDDEF
C:\PROGRAM FILES (X86)\WINDOWS KITS\10\INCLUDE\10.0.17763.0\UCRT\STDDEF.H
C:\PROGRAM FILES (X86)\MICROSOFT VISUAL STUDIO\2019\COMMUNITY\VC\TOOLS\MSVC\14.21.27702\INCLUDE\XTR1COMMON
C:\PROGRAM FILES (X86)\MICROSOFT VISUAL STUDIO\2019\COMMUNITY\VC\TOOLS\MSVC\14.21.27702\INCLUDE\CSTDLIB
C:\PROGRAM FILES (X86)\WINDOWS KITS\10\INCLUDE\10.0.17763.0\UCRT\MATH.H
C:\PROGRAM FILES (X86)\WINDOWS KITS\10\INCLUDE\10.0.17763.0\UCRT\CORECRT_MATH.H
C:\PROGRAM FILES (X86)\WINDOWS KITS\10\INCLUDE\10.0.17763.0\UCRT\STDLIB.H
C:\PROGRAM FILES (X86)\WINDOWS KITS\10\INCLUDE\10.0.17763.0\UCRT\CORECRT_MALLOC.H
C:\PROGRAM FILES (X86)\WINDOWS KITS\10\INCLUDE\10.0.17763.0\UCRT\CORECRT_SEARCH.H
C:\PROGRAM FILES (X86)\MICROSOFT VISUAL STUDIO\2019\COMMUNITY\VC\TOOLS\MSVC\14.21.27702\INCLUDE\LIMITS.H
C:\PROGRAM FILES (X86)\MICROSOFT VISUAL STUDIO\2019\COMMUNITY\VC\TOOLS\MSVC\14.21.27702\INCLUDE\INITIALIZER_LIST
C:\PROGRAM FILES (X86)\MICROSOFT VISUAL STUDIO\2019\COMMUNITY\VC\TOOLS\MSVC\14.21.27702\INCLUDE\XMEMORY0
C:\PROGRAM FILES (X86)\MICROSOFT VISUAL STUDIO\2019\COMMUNITY\VC\TOOLS\MSVC\14.21.27702\INCLUDE\CSTDINT
C:\PROGRAM FILES (X86)\MICROSOFT VISUAL STUDIO\2019\COMMUNITY\VC\TOOLS\MSVC\14.21.27702\INCLUDE\STDINT.H
C:\PROGRAM FILES (X86)\MICROSOFT VISUAL STUDIO\2019\COMMUNITY\VC\TOOLS\MSVC\14.21.27702\INCLUDE\LIMITS
C:\PROGRAM FILES (X86)\MICROSOFT VISUAL STUDIO\2019\COMMUNITY\VC\TOOLS\MSVC\14.21.27702\INCLUDE\CFLOAT
C:\PROGRAM FILES (X86)\WINDOWS KITS\10\INCLUDE\10.0.17763.0\UCRT\FLOAT.H
C:\PROGRAM FILES (X86)\MICROSOFT VISUAL STUDIO\2019\COMMUNITY\VC\TOOLS\MSVC\14.21.27702\INCLUDE\CLIMITS
C:\PROGRAM FILES (X86)\MICROSOFT VISUAL STUDIO\2019\COMMUNITY\VC\TOOLS\MSVC\14.21.27702\INCLUDE\NEW
C:\PROGRAM FILES (X86)\MICROSOFT VISUAL STUDIO\2019\COMMUNITY\VC\TOOLS\MSVC\14.21.27702\INCLUDE\EXCEPTION
C:\PROGRAM FILES (X86)\MICROSOFT VISUAL STUDIO\2019\COMMUNITY\VC\TOOLS\MSVC\14.21.27702\INCLUDE\TYPE_TRAITS
C:\PROGRAM FILES (X86)\WINDOWS KITS\10\INCLUDE\10.0.17763.0\UCRT\MALLOC.H
C:\PROGRAM FILES (X86)\MICROSOFT VISUAL STUDIO\2019\COMMUNITY\VC\TOOLS\MSVC\14.21.27702\INCLUDE\VCRUNTIME_EXCEPTION.H
C:\PROGRAM FILES (X86)\MICROSOFT VISUAL STUDIO\2019\COMMUNITY\VC\TOOLS\MSVC\14.21.27702\INCLUDE\EH.H
C:\PROGRAM FILES (X86)\WINDOWS KITS\10\INCLUDE\10.0.17763.0\UCRT\CORECRT_TERMINATE.H
C:\PROGRAM FILES (X86)\MICROSOFT VISUAL STUDIO\2019\COMMUNITY\VC\TOOLS\MSVC\14.21.27702\INCLUDE\XATOMIC.H
C:\PROGRAM FILES (X86)\MICROSOFT VISUAL STUDIO\2019\COMMUNITY\VC\TOOLS\MSVC\14.21.27702\INCLUDE\INTRIN0.H
C:\PROGRAM FILES (X86)\MICROSOFT VISUAL STUDIO\2019\COMMUNITY\VC\TOOLS\MSVC\14.21.27702\INCLUDE\XUTILITY
C:\PROGRAM FILES (X86)\MICROSOFT VISUAL STUDIO\2019\COMMUNITY\VC\TOOLS\MSVC\14.21.27702\INCLUDE\UTILITY
C:\PROGRAM FILES (X86)\MICROSOFT VISUAL STUDIO\2019\COMMUNITY\VC\TOOLS\MSVC\14.21.27702\INCLUDE\CCTYPE
C:\PROGRAM FILES (X86)\WINDOWS KITS\10\INCLUDE\10.0.17763.0\UCRT\CTYPE.H
C:\OGRESDK_1_9\INCLUDE\OGRE\OGRESTDHEADERS.H
C:\PROGRAM FILES (X86)\MICROSOFT VISUAL STUDIO\2019\COMMUNITY\VC\TOOLS\MSVC\14.21.27702\INCLUDE\CASSERT
C:\PROGRAM FILES (X86)\WINDOWS KITS\10\INCLUDE\10.0.17763.0\UCRT\ASSERT.H
C:\PROGRAM FILES (X86)\MICROSOFT VISUAL STUDIO\2019\COMMUNITY\VC\TOOLS\MSVC\14.21.27702\INCLUDE\CTIME
C:\PROGRAM FILES (X86)\WINDOWS KITS\10\INCLUDE\10.0.17763.0\UCRT\TIME.H
C:\PROGRAM FILES (X86)\MICROSOFT VISUAL STUDIO\2019\COMMUNITY\VC\TOOLS\MSVC\14.21.27702\INCLUDE\CSTDARG
C:\PROGRAM FILES (X86)\MICROSOFT VISUAL STUDIO\2019\COMMUNITY\VC\TOOLS\MSVC\14.21.27702\INCLUDE\STDARG.H
C:\PROGRAM FILES (X86)\MICROSOFT VISUAL STUDIO\2019\COMMUNITY\VC\TOOLS\MSVC\14.21.27702\INCLUDE\CMATH
C:\PROGRAM FILES (X86)\MICROSOFT VISUAL STUDIO\2019\COMMUNITY\VC\TOOLS\MSVC\14.21.27702\INCLUDE\XTGMATH.H
C:\PROGRAM FILES (X86)\MICROSOFT VISUAL STUDIO\2019\COMMUNITY\VC\TOOLS\MSVC\14.21.27702\INCLUDE\VECTOR
C:\PROGRAM FILES (X86)\MICROSOFT VISUAL STUDIO\2019\COMMUNITY\VC\TOOLS\MSVC\14.21.27702\INCLUDE\XMEMORY
C:\PROGRAM FILES (X86)\MICROSOFT VISUAL STUDIO\2019\COMMUNITY\VC\TOOLS\MSVC\14.21.27702\INCLUDE\MAP
C:\PROGRAM FILES (X86)\MICROSOFT VISUAL STUDIO\2019\COMMUNITY\VC\TOOLS\MSVC\14.21.27702\INCLUDE\TUPLE
C:\PROGRAM FILES (X86)\MICROSOFT VISUAL STUDIO\2019\COMMUNITY\VC\TOOLS\MSVC\14.21.27702\INCLUDE\XTREE
C:\PROGRAM FILES (X86)\MICROSOFT VISUAL STUDIO\2019\COMMUNITY\VC\TOOLS\MSVC\14.21.27702\INCLUDE\SET
C:\PROGRAM FILES (X86)\MICROSOFT VISUAL STUDIO\2019\COMMUNITY\VC\TOOLS\MSVC\14.21.27702\INCLUDE\LIST
C:\PROGRAM FILES (X86)\MICROSOFT VISUAL STUDIO\2019\COMMUNITY\VC\TOOLS\MSVC\14.21.27702\INCLUDE\DEQUE
C:\PROGRAM FILES (X86)\MICROSOFT VISUAL STUDIO\2019\COMMUNITY\VC\TOOLS\MSVC\14.21.27702\INCLUDE\QUEUE
C:\PROGRAM FILES (X86)\MICROSOFT VISUAL STUDIO\2019\COMMUNITY\VC\TOOLS\MSVC\14.21.27702\INCLUDE\ALGORITHM
C:\PROGRAM FILES (X86)\MICROSOFT VISUAL STUDIO\2019\COMMUNITY\VC\TOOLS\MSVC\14.21.27702\INCLUDE\BITSET
C:\PROGRAM FILES (X86)\MICROSOFT VISUAL STUDIO\2019\COMMUNITY\VC\TOOLS\MSVC\14.21.27702\INCLUDE\UNORDERED_MAP
C:\PROGRAM FILES (X86)\MICROSOFT VISUAL STUDIO\2019\COMMUNITY\VC\TOOLS\MSVC\14.21.27702\INCLUDE\XHASH
C:\PROGRAM FILES (X86)\MICROSOFT VISUAL STUDIO\2019\COMMUNITY\VC\TOOLS\MSVC\14.21.27702\INCLUDE\XBIT_OPS.H
C:\PROGRAM FILES (X86)\MICROSOFT VISUAL STUDIO\2019\COMMUNITY\VC\TOOLS\MSVC\14.21.27702\INCLUDE\UNORDERED_SET
C:\PROGRAM FILES (X86)\MICROSOFT VISUAL STUDIO\2019\COMMUNITY\VC\TOOLS\MSVC\14.21.27702\INCLUDE\FUNCTIONAL
C:\PROGRAM FILES (X86)\MICROSOFT VISUAL STUDIO\2019\COMMUNITY\VC\TOOLS\MSVC\14.21.27702\INCLUDE\TYPEINFO
C:\PROGRAM FILES (X86)\MICROSOFT VISUAL STUDIO\2019\COMMUNITY\VC\TOOLS\MSVC\14.21.27702\INCLUDE\VCRUNTIME_TYPEINFO.H
C:\PROGRAM FILES (X86)\MICROSOFT VISUAL STUDIO\2019\COMMUNITY\VC\TOOLS\MSVC\14.21.27702\INCLUDE\FSTREAM
C:\PROGRAM FILES (X86)\MICROSOFT VISUAL STUDIO\2019\COMMUNITY\VC\TOOLS\MSVC\14.21.27702\INCLUDE\ISTREAM
C:\PROGRAM FILES (X86)\MICROSOFT VISUAL STUDIO\2019\COMMUNITY\VC\TOOLS\MSVC\14.21.27702\INCLUDE\OSTREAM
C:\PROGRAM FILES (X86)\MICROSOFT VISUAL STUDIO\2019\COMMUNITY\VC\TOOLS\MSVC\14.21.27702\INCLUDE\IOS
C:\PROGRAM FILES (X86)\MICROSOFT VISUAL STUDIO\2019\COMMUNITY\VC\TOOLS\MSVC\14.21.27702\INCLUDE\XLOCNUM
C:\PROGRAM FILES (X86)\MICROSOFT VISUAL STUDIO\2019\COMMUNITY\VC\TOOLS\MSVC\14.21.27702\INCLUDE\STREAMBUF
C:\PROGRAM FILES (X86)\MICROSOFT VISUAL STUDIO\2019\COMMUNITY\VC\TOOLS\MSVC\14.21.27702\INCLUDE\XIOSBASE
C:\PROGRAM FILES (X86)\WINDOWS KITS\10\INCLUDE\10.0.17763.0\UCRT\SHARE.H
C:\PROGRAM FILES (X86)\MICROSOFT VISUAL STUDIO\2019\COMMUNITY\VC\TOOLS\MSVC\14.21.27702\INCLUDE\SYSTEM_ERROR
C:\PROGRAM FILES (X86)\MICROSOFT VISUAL STUDIO\2019\COMMUNITY\VC\TOOLS\MSVC\14.21.27702\INCLUDE\CERRNO
C:\PROGRAM FILES (X86)\MICROSOFT VISUAL STUDIO\2019\COMMUNITY\VC\TOOLS\MSVC\14.21.27702\INCLUDE\STDEXCEPT
C:\PROGRAM FILES (X86)\MICROSOFT VISUAL STUDIO\2019\COMMUNITY\VC\TOOLS\MSVC\14.21.27702\INCLUDE\XCALL_ONCE.H
C:\PROGRAM FILES (X86)\MICROSOFT VISUAL STUDIO\2019\COMMUNITY\VC\TOOLS\MSVC\14.21.27702\INCLUDE\XERRC.H
C:\PROGRAM FILES (X86)\MICROSOFT VISUAL STUDIO\2019\COMMUNITY\VC\TOOLS\MSVC\14.21.27702\INCLUDE\XLOCALE
C:\PROGRAM FILES (X86)\MICROSOFT VISUAL STUDIO\2019\COMMUNITY\VC\TOOLS\MSVC\14.21.27702\INCLUDE\MEMORY
C:\PROGRAM FILES (X86)\MICROSOFT VISUAL STUDIO\2019\COMMUNITY\VC\TOOLS\MSVC\14.21.27702\INCLUDE\XFACET
C:\PROGRAM FILES (X86)\MICROSOFT VISUAL STUDIO\2019\COMMUNITY\VC\TOOLS\MSVC\14.21.27702\INCLUDE\XLOCINFO
C:\PROGRAM FILES (X86)\MICROSOFT VISUAL STUDIO\2019\COMMUNITY\VC\TOOLS\MSVC\14.21.27702\INCLUDE\XLOCINFO.H
C:\PROGRAM FILES (X86)\WINDOWS KITS\10\INCLUDE\10.0.17763.0\UCRT\LOCALE.H
C:\PROGRAM FILES (X86)\MICROSOFT VISUAL STUDIO\2019\COMMUNITY\VC\TOOLS\MSVC\14.21.27702\INCLUDE\IOSTREAM
C:\PROGRAM FILES (X86)\MICROSOFT VISUAL STUDIO\2019\COMMUNITY\VC\TOOLS\MSVC\14.21.27702\INCLUDE\IOMANIP
C:\PROGRAM FILES (X86)\MICROSOFT VISUAL STUDIO\2019\COMMUNITY\VC\TOOLS\MSVC\14.21.27702\INCLUDE\XLOCMON
C:\PROGRAM FILES (X86)\MICROSOFT VISUAL STUDIO\2019\COMMUNITY\VC\TOOLS\MSVC\14.21.27702\INCLUDE\XLOCTIME
C:\PROGRAM FILES (X86)\MICROSOFT VISUAL STUDIO\2019\COMMUNITY\VC\TOOLS\MSVC\14.21.27702\INCLUDE\SSTREAM
C:\OGRESDK_1_9\INCLUDE\OGRE\OGREMEMORYALLOCATORCONFIG.H
C:\OGRESDK_1_9\INCLUDE\OGRE\OGREMEMORYALLOCATEDOBJECT.H
C:\OGRESDK_1_9\INCLUDE\OGRE\OGREHEADERPREFIX.H
C:\OGRESDK_1_9\INCLUDE\OGRE\OGREHEADERSUFFIX.H
C:\OGRESDK_1_9\INCLUDE\OGRE\OGREMEMORYSTLALLOCATOR.H
C:\OGRESDK_1_9\INCLUDE\OGRE\OGREMEMORYNEDPOOLING.H
C:\OGRESDK_1_9\INCLUDE\OGRE\OGRESTRING.H
C:\OGRESDK_1_9\INCLUDE\OGRE\OGREMOVABLEOBJECT.H
C:\OGRESDK_1_9\INCLUDE\OGRE\OGRERENDERQUEUE.H
C:\OGRESDK_1_9\INCLUDE\OGRE\OGREITERATORWRAPPERS.H
C:\OGRESDK_1_9\INCLUDE\OGRE\OGREITERATORWRAPPER.H
C:\OGRESDK_1_9\INCLUDE\OGRE\OGREITERATORRANGE.H
C:\OGRESDK_1_9\INCLUDE\OGRE\OGREAXISALIGNEDBOX.H
C:\OGRESDK_1_9\INCLUDE\OGRE\OGREVECTOR3.H
C:\OGRESDK_1_9\INCLUDE\OGRE\OGREMATH.H
C:\OGRESDK_1_9\INCLUDE\OGRE\OGREQUATERNION.H
C:\OGRESDK_1_9\INCLUDE\OGRE\OGREMATRIX4.H
C:\OGRESDK_1_9\INCLUDE\OGRE\OGREMATRIX3.H
C:\OGRESDK_1_9\INCLUDE\OGRE\OGREVECTOR4.H
C:\OGRESDK_1_9\INCLUDE\OGRE\OGREPLANE.H
C:\OGRESDK_1_9\INCLUDE\OGRE\OGRESPHERE.H
C:\OGRESDK_1_9\INCLUDE\OGRE\OGRESHADOWCASTER.H
C:\OGRESDK_1_9\INCLUDE\OGRE\OGRERENDERABLE.H
C:\OGRESDK_1_9\INCLUDE\OGRE\OGRECOMMON.H
C:\OGRESDK_1_9\INCLUDE\OGRE\OGRERENDEROPERATION.H
C:\OGRESDK_1_9\INCLUDE\OGRE\OGREVERTEXINDEXDATA.H
C:\OGRESDK_1_9\INCLUDE\OGRE\OGREHARDWAREVERTEXBUFFER.H
C:\OGRESDK_1_9\INCLUDE\OGRE\OGREHARDWAREBUFFER.H
C:\OGRESDK_1_9\INCLUDE\OGRE\OGREEXCEPTION.H
C:\OGRESDK_1_9\INCLUDE\OGRE\OGRESHAREDPTR.H
C:\OGRESDK_1_9\INCLUDE\OGRE\OGREATOMICSCALAR.H
C:\PROGRAM FILES (X86)\WINDOWS KITS\10\INCLUDE\10.0.17763.0\UCRT\SIGNAL.H
C:\OGRESDK_1_9\INCLUDE\OGRE\OGREPLATFORMINFORMATION.H
C:\OGRESDK_1_9\INCLUDE\OGRE\THREADING\OGRETHREADHEADERS.H
C:\OGRESDK_1_9\INCLUDE\OGRE\THREADING\OGRETHREADDEFINES.H
C:\OGRESDK_1_9\INCLUDE\OGRE\THREADING\OGRETHREADDEFINESNONE.H
C:\OGRESDK_1_9\INCLUDE\OGRE\OGRECOLOURVALUE.H
C:\OGRESDK_1_9\INCLUDE\OGRE\OGREHARDWAREINDEXBUFFER.H
C:\OGRESDK_1_9\INCLUDE\OGRE\OGREMATERIAL.H
C:\OGRESDK_1_9\INCLUDE\OGRE\OGRERESOURCE.H
C:\OGRESDK_1_9\INCLUDE\OGRE\OGRESTRINGINTERFACE.H
C:\OGRESDK_1_9\INCLUDE\OGRE\OGREBLENDMODE.H
C:\OGRESDK_1_9\INCLUDE\OGRE\OGREGPUPROGRAM.H
C:\OGRESDK_1_9\INCLUDE\OGRE\OGRESERIALIZER.H
C:\OGRESDK_1_9\INCLUDE\OGRE\OGREDATASTREAM.H
C:\OGRESDK_1_9\INCLUDE\OGRE\OGREGPUPROGRAMPARAMS.H
C:\OGRESDK_1_9\INCLUDE\OGRE\OGREANY.H
C:\OGRESDK_1_9\INCLUDE\OGRE\OGREUSEROBJECTBINDINGS.H
C:\OGRESDK_1_9\INCLUDE\OGRE\OGREFACTORYOBJ.H
C:\OGRESDK_1_9\INCLUDE\OGRE\OGREANIMABLE.H
C:\OGRESDK_1_9\INCLUDE\OGRE\OGREVECTOR2.H
C:\OGRESDK_1_9\INCLUDE\OGRE\OGRESTRINGVECTOR.H
C:\OGRESDK_1_9\INCLUDE\OGRE\OGREFRUSTUM.H
C:\OGRESDK_1_9\INCLUDE\OGRE\OGREMOVABLEPLANE.H
C:\OGRESDK_1_9\INCLUDE\OGRE\OGRERAY.H
C:\OGRESDK_1_9\INCLUDE\OGRE\OGREPLANEBOUNDEDVOLUME.H
C:\OGRESDK_1_9\INCLUDE\OGRE\OGREENTITY.H
C:\OGRESDK_1_9\INCLUDE\OGRE\OGREHARDWAREBUFFERMANAGER.H
C:\OGRESDK_1_9\INCLUDE\OGRE\OGRESINGLETON.H
C:\OGRESDK_1_9\INCLUDE\OGRE\OGREHARDWARECOUNTERBUFFER.H
C:\OGRESDK_1_9\INCLUDE\OGRE\OGREHARDWAREUNIFORMBUFFER.H
C:\OGRESDK_1_9\INCLUDE\OGRE\OGRERENDERTOVERTEXBUFFER.H
C:\OGRESDK_1_9\INCLUDE\OGRE\OGREMESH.H
C:\OGRESDK_1_9\INCLUDE\OGRE\OGREVERTEXBONEASSIGNMENT.H
C:\OGRESDK_1_9\INCLUDE\OGRE\OGRESKELETON.H
C:\OGRESDK_1_9\INCLUDE\OGRE\OGREANIMATION.H
C:\OGRESDK_1_9\INCLUDE\OGRE\OGREANIMATIONTRACK.H
C:\OGRESDK_1_9\INCLUDE\OGRE\OGRESIMPLESPLINE.H
C:\OGRESDK_1_9\INCLUDE\OGRE\OGREROTATIONALSPLINE.H
C:\OGRESDK_1_9\INCLUDE\OGRE\OGREKEYFRAME.H
C:\OGRESDK_1_9\INCLUDE\OGRE\OGREPOSE.H
C:\OGRESDK_1_9\INCLUDE\OGRE\OGREANIMATIONSTATE.H
C:\OGRESDK_1_9\INCLUDE\OGRE\OGRECONTROLLER.H
C:\OGRESDK_1_9\INCLUDE\OGRE\OGRERESOURCEGROUPMANAGER.H
C:\OGRESDK_1_9\INCLUDE\OGRE\OGREARCHIVE.H
C:\OGRESDK_1_9\INCLUDE\OGRE\OGRELOGMANAGER.H
C:\OGRESDK_1_9\INCLUDE\OGRE\OGRELOG.H
C:\OGRESDK_1_9\INCLUDE\OGRE\OGREROOT.H
C:\OGRESDK_1_9\INCLUDE\OGRE\OGRESCENEMANAGERENUMERATOR.H
C:\OGRESDK_1_9\INCLUDE\OGRE\OGRESCENEMANAGER.H
C:\OGRESDK_1_9\INCLUDE\OGRE\OGRESCENENODE.H
C:\OGRESDK_1_9\INCLUDE\OGRE\OGRENODE.H
C:\OGRESDK_1_9\INCLUDE\OGRE\OGRESCENEQUERY.H
C:\OGRESDK_1_9\INCLUDE\OGRE\OGREAUTOPARAMDATASOURCE.H
C:\OGRESDK_1_9\INCLUDE\OGRE\OGRELIGHT.H
C:\OGRESDK_1_9\INCLUDE\OGRE\OGRESHADOWCAMERASETUP.H
C:\OGRESDK_1_9\INCLUDE\OGRE\OGRERENDERQUEUESORTINGGROUPING.H
C:\OGRESDK_1_9\INCLUDE\OGRE\OGRETECHNIQUE.H
C:\OGRESDK_1_9\INCLUDE\OGRE\OGREPASS.H
C:\OGRESDK_1_9\INCLUDE\OGRE\OGRETEXTUREUNITSTATE.H
C:\OGRESDK_1_9\INCLUDE\OGRE\OGRETEXTURE.H
C:\OGRESDK_1_9\INCLUDE\OGRE\OGREIMAGE.H
C:\OGRESDK_1_9\INCLUDE\OGRE\OGREPIXELFORMAT.H
C:\OGRESDK_1_9\INCLUDE\OGRE\OGRERENDERSYSTEMCAPABILITIES.H
C:\OGRESDK_1_9\INCLUDE\OGRE\OGRESTRINGCONVERTER.H
C:\OGRESDK_1_9\INCLUDE\OGRE\OGRERADIXSORT.H
C:\OGRESDK_1_9\INCLUDE\OGRE\OGRERECTANGLE2D.H
C:\OGRESDK_1_9\INCLUDE\OGRE\OGRESIMPLERENDERABLE.H
C:\OGRESDK_1_9\INCLUDE\OGRE\OGRESHADOWTEXTUREMANAGER.H
C:\OGRESDK_1_9\INCLUDE\OGRE\OGREINSTANCEDGEOMETRY.H
C:\OGRESDK_1_9\INCLUDE\OGRE\OGRESKELETONINSTANCE.H
C:\OGRESDK_1_9\INCLUDE\OGRE\OGREBONE.H
C:\OGRESDK_1_9\INCLUDE\OGRE\OGRELODLISTENER.H
C:\OGRESDK_1_9\INCLUDE\OGRE\OGREINSTANCEMANAGER.H
C:\OGRESDK_1_9\INCLUDE\OGRE\OGRERENDERSYSTEM.H
C:\OGRESDK_1_9\INCLUDE\OGRE\OGREMATERIALMANAGER.H
C:\OGRESDK_1_9\INCLUDE\OGRE\OGRERESOURCEMANAGER.H
C:\OGRESDK_1_9\INCLUDE\OGRE\OGRESCRIPTLOADER.H
C:\OGRESDK_1_9\INCLUDE\OGRE\OGREMATERIALSERIALIZER.H
C:\OGRESDK_1_9\INCLUDE\OGRE\OGRERENDERTARGET.H
C:\OGRESDK_1_9\INCLUDE\OGRE\OGRETEXTUREMANAGER.H
C:\OGRESDK_1_9\INCLUDE\OGRE\OGREVIEWPORT.H
C:\OGRESDK_1_9\INCLUDE\OGRE\OGRETIMER.H
C:\OGRESDK_1_9\INCLUDE\OGRE\WIN32\OGRETIMERIMP.H
C:\PROGRAM FILES (X86)\WINDOWS KITS\10\INCLUDE\10.0.17763.0\UM\WINDOWS.H
C:\PROGRAM FILES (X86)\WINDOWS KITS\10\INCLUDE\10.0.17763.0\SHARED\WINAPIFAMILY.H
C:\PROGRAM FILES (X86)\WINDOWS KITS\10\INCLUDE\10.0.17763.0\SHARED\WINPACKAGEFAMILY.H
C:\PROGRAM FILES (X86)\WINDOWS KITS\10\INCLUDE\10.0.17763.0\SHARED\SDKDDKVER.H
C:\PROGRAM FILES (X86)\MICROSOFT VISUAL STUDIO\2019\COMMUNITY\VC\TOOLS\MSVC\14.21.27702\INCLUDE\EXCPT.H
C:\PROGRAM FILES (X86)\WINDOWS KITS\10\INCLUDE\10.0.17763.0\SHARED\WINDEF.H
C:\PROGRAM FILES (X86)\WINDOWS KITS\10\INCLUDE\10.0.17763.0\SHARED\MINWINDEF.H
C:\PROGRAM FILES (X86)\WINDOWS KITS\10\INCLUDE\10.0.17763.0\SHARED\SPECSTRINGS.H
C:\PROGRAM FILES (X86)\WINDOWS KITS\10\INCLUDE\10.0.17763.0\SHARED\SPECSTRINGS_STRICT.H
C:\PROGRAM FILES (X86)\WINDOWS KITS\10\INCLUDE\10.0.17763.0\SHARED\SPECSTRINGS_UNDEF.H
C:\PROGRAM FILES (X86)\WINDOWS KITS\10\INCLUDE\10.0.17763.0\SHARED\DRIVERSPECS.H
C:\PROGRAM FILES (X86)\WINDOWS KITS\10\INCLUDE\10.0.17763.0\SHARED\SDV_DRIVERSPECS.H
C:\PROGRAM FILES (X86)\WINDOWS KITS\10\INCLUDE\10.0.17763.0\UM\WINNT.H
C:\PROGRAM FILES (X86)\WINDOWS KITS\10\INCLUDE\10.0.17763.0\SHARED\KERNELSPECS.H
C:\PROGRAM FILES (X86)\WINDOWS KITS\10\INCLUDE\10.0.17763.0\SHARED\BASETSD.H
C:\PROGRAM FILES (X86)\WINDOWS KITS\10\INCLUDE\10.0.17763.0\SHARED\GUIDDEF.H
C:\PROGRAM FILES (X86)\WINDOWS KITS\10\INCLUDE\10.0.17763.0\SHARED\PSHPACK4.H
C:\PROGRAM FILES (X86)\WINDOWS KITS\10\INCLUDE\10.0.17763.0\SHARED\POPPACK.H
C:\PROGRAM FILES (X86)\WINDOWS KITS\10\INCLUDE\10.0.17763.0\SHARED\PSHPACK2.H
C:\PROGRAM FILES (X86)\WINDOWS KITS\10\INCLUDE\10.0.17763.0\SHARED\PSHPACK8.H
C:\PROGRAM FILES (X86)\WINDOWS KITS\10\INCLUDE\10.0.17763.0\SHARED\PSHPACK1.H
C:\PROGRAM FILES (X86)\WINDOWS KITS\10\INCLUDE\10.0.17763.0\SHARED\APISET.H
C:\PROGRAM FILES (X86)\WINDOWS KITS\10\INCLUDE\10.0.17763.0\SHARED\KTMTYPES.H
C:\PROGRAM FILES (X86)\WINDOWS KITS\10\INCLUDE\10.0.17763.0\UM\WINBASE.H
C:\PROGRAM FILES (X86)\WINDOWS KITS\10\INCLUDE\10.0.17763.0\SHARED\APISETCCONV.H
C:\PROGRAM FILES (X86)\WINDOWS KITS\10\INCLUDE\10.0.17763.0\UM\MINWINBASE.H
C:\PROGRAM FILES (X86)\WINDOWS KITS\10\INCLUDE\10.0.17763.0\UM\APIQUERY2.H
C:\PROGRAM FILES (X86)\WINDOWS KITS\10\INCLUDE\10.0.17763.0\UM\PROCESSENV.H
C:\PROGRAM FILES (X86)\WINDOWS KITS\10\INCLUDE\10.0.17763.0\UM\FILEAPI.H
C:\PROGRAM FILES (X86)\WINDOWS KITS\10\INCLUDE\10.0.17763.0\UM\DEBUGAPI.H
C:\PROGRAM FILES (X86)\WINDOWS KITS\10\INCLUDE\10.0.17763.0\UM\UTILAPISET.H
C:\PROGRAM FILES (X86)\WINDOWS KITS\10\INCLUDE\10.0.17763.0\UM\HANDLEAPI.H
C:\PROGRAM FILES (X86)\WINDOWS KITS\10\INCLUDE\10.0.17763.0\UM\ERRHANDLINGAPI.H
C:\PROGRAM FILES (X86)\WINDOWS KITS\10\INCLUDE\10.0.17763.0\UM\FIBERSAPI.H
C:\PROGRAM FILES (X86)\WINDOWS KITS\10\INCLUDE\10.0.17763.0\UM\NAMEDPIPEAPI.H
C:\PROGRAM FILES (X86)\WINDOWS KITS\10\INCLUDE\10.0.17763.0\UM\PROFILEAPI.H
C:\PROGRAM FILES (X86)\WINDOWS KITS\10\INCLUDE\10.0.17763.0\UM\HEAPAPI.H
C:\PROGRAM FILES (X86)\WINDOWS KITS\10\INCLUDE\10.0.17763.0\UM\IOAPISET.H
C:\PROGRAM FILES (X86)\WINDOWS KITS\10\INCLUDE\10.0.17763.0\UM\SYNCHAPI.H
C:\PROGRAM FILES (X86)\WINDOWS KITS\10\INCLUDE\10.0.17763.0\UM\INTERLOCKEDAPI.H
C:\PROGRAM FILES (X86)\WINDOWS KITS\10\INCLUDE\10.0.17763.0\UM\PROCESSTHREADSAPI.H
C:\PROGRAM FILES (X86)\WINDOWS KITS\10\INCLUDE\10.0.17763.0\UM\SYSINFOAPI.H
C:\PROGRAM FILES (X86)\WINDOWS KITS\10\INCLUDE\10.0.17763.0\UM\MEMORYAPI.H
C:\PROGRAM FILES (X86)\WINDOWS KITS\10\INCLUDE\10.0.17763.0\UM\ENCLAVEAPI.H
C:\PROGRAM FILES (X86)\WINDOWS KITS\10\INCLUDE\10.0.17763.0\UM\THREADPOOLLEGACYAPISET.H
C:\PROGRAM FILES (X86)\WINDOWS KITS\10\INCLUDE\10.0.17763.0\UM\THREADPOOLAPISET.H
C:\PROGRAM FILES (X86)\WINDOWS KITS\10\INCLUDE\10.0.17763.0\UM\JOBAPI.H
C:\PROGRAM FILES (X86)\WINDOWS KITS\10\INCLUDE\10.0.17763.0\UM\JOBAPI2.H
C:\PROGRAM FILES (X86)\WINDOWS KITS\10\INCLUDE\10.0.17763.0\UM\WOW64APISET.H
C:\PROGRAM FILES (X86)\WINDOWS KITS\10\INCLUDE\10.0.17763.0\UM\LIBLOADERAPI.H
C:\PROGRAM FILES (X86)\WINDOWS KITS\10\INCLUDE\10.0.17763.0\UM\SECURITYBASEAPI.H
C:\PROGRAM FILES (X86)\WINDOWS KITS\10\INCLUDE\10.0.17763.0\UM\NAMESPACEAPI.H
C:\PROGRAM FILES (X86)\WINDOWS KITS\10\INCLUDE\10.0.17763.0\UM\SYSTEMTOPOLOGYAPI.H
C:\PROGRAM FILES (X86)\WINDOWS KITS\10\INCLUDE\10.0.17763.0\UM\PROCESSTOPOLOGYAPI.H
C:\PROGRAM FILES (X86)\WINDOWS KITS\10\INCLUDE\10.0.17763.0\UM\SECURITYAPPCONTAINER.H
C:\PROGRAM FILES (X86)\WINDOWS KITS\10\INCLUDE\10.0.17763.0\UM\REALTIMEAPISET.H
C:\PROGRAM FILES (X86)\WINDOWS KITS\10\INCLUDE\10.0.17763.0\SHARED\WINERROR.H
C:\PROGRAM FILES (X86)\WINDOWS KITS\10\INCLUDE\10.0.17763.0\UM\TIMEZONEAPI.H
C:\PROGRAM FILES (X86)\WINDOWS KITS\10\INCLUDE\10.0.17763.0\UM\WINGDI.H
C:\PROGRAM FILES (X86)\WINDOWS KITS\10\INCLUDE\10.0.17763.0\UM\WINUSER.H
C:\PROGRAM FILES (X86)\WINDOWS KITS\10\INCLUDE\10.0.17763.0\SHARED\TVOUT.H
C:\PROGRAM FILES (X86)\WINDOWS KITS\10\INCLUDE\10.0.17763.0\UM\WINNLS.H
C:\PROGRAM FILES (X86)\WINDOWS KITS\10\INCLUDE\10.0.17763.0\UM\DATETIMEAPI.H
C:\PROGRAM FILES (X86)\WINDOWS KITS\10\INCLUDE\10.0.17763.0\UM\STRINGAPISET.H
C:\PROGRAM FILES (X86)\WINDOWS KITS\10\INCLUDE\10.0.17763.0\UM\WINCON.H
C:\PROGRAM FILES (X86)\WINDOWS KITS\10\INCLUDE\10.0.17763.0\UM\WINCONTYPES.H
C:\PROGRAM FILES (X86)\WINDOWS KITS\10\INCLUDE\10.0.17763.0\UM\CONSOLEAPI.H
C:\PROGRAM FILES (X86)\WINDOWS KITS\10\INCLUDE\10.0.17763.0\UM\CONSOLEAPI2.H
C:\PROGRAM FILES (X86)\WINDOWS KITS\10\INCLUDE\10.0.17763.0\UM\CONSOLEAPI3.H
C:\PROGRAM FILES (X86)\WINDOWS KITS\10\INCLUDE\10.0.17763.0\UM\WINVER.H
C:\PROGRAM FILES (X86)\WINDOWS KITS\10\INCLUDE\10.0.17763.0\UM\VERRSRC.H
C:\PROGRAM FILES (X86)\WINDOWS KITS\10\INCLUDE\10.0.17763.0\UM\WINREG.H
C:\PROGRAM FILES (X86)\WINDOWS KITS\10\INCLUDE\10.0.17763.0\UM\REASON.H
C:\PROGRAM FILES (X86)\WINDOWS KITS\10\INCLUDE\10.0.17763.0\UM\WINNETWK.H
C:\PROGRAM FILES (X86)\WINDOWS KITS\10\INCLUDE\10.0.17763.0\SHARED\WNNC.H
C:\PROGRAM FILES (X86)\WINDOWS KITS\10\INCLUDE\10.0.17763.0\SHARED\STRALIGN.H
C:\PROGRAM FILES (X86)\WINDOWS KITS\10\INCLUDE\10.0.17763.0\UM\WINSVC.H
C:\PROGRAM FILES (X86)\WINDOWS KITS\10\INCLUDE\10.0.17763.0\UM\MCX.H
C:\PROGRAM FILES (X86)\WINDOWS KITS\10\INCLUDE\10.0.17763.0\UM\IMM.H
C:\PROGRAM FILES (X86)\WINDOWS KITS\10\INCLUDE\10.0.17763.0\UM\IME_CMODES.H
C:\OGRESDK_1_9\INCLUDE\OGRE\OGRERENDERTEXTURE.H
C:\OGRESDK_1_9\INCLUDE\OGRE\OGREFRAMELISTENER.H
C:\OGRESDK_1_9\INCLUDE\OGRE\OGRECONFIGOPTIONMAP.H
C:\OGRESDK_1_9\INCLUDE\OGRE\OGRENAMEGENERATOR.H
C:\OGRESDK_1_9\INCLUDE\OGRE\OGRELODSTRATEGYMANAGER.H
C:\OGRESDK_1_9\INCLUDE\OGRE\OGRELODSTRATEGY.H
C:\OGRESDK_1_9\INCLUDE\OGRE\OGREWORKQUEUE.H
C:\OGRESDK_1_9\INCLUDE\OGRE\OGRERENDERWINDOW.H
C:\OGRESDK_1_9\INCLUDE\OGRE\OGRECONFIGFILE.H
C:\OGRESDK_1_9\INCLUDE\OIS\OISEVENTS.H
C:\OGRESDK_1_9\INCLUDE\OIS\OISPREREQS.H
C:\OGRESDK_1_9\INCLUDE\OIS\OISCONFIG.H
C:\OGRESDK_1_9\INCLUDE\OIS\OISINPUTMANAGER.H
C:\OGRESDK_1_9\INCLUDE\OIS\OISKEYBOARD.H
C:\OGRESDK_1_9\INCLUDE\OIS\OISOBJECT.H
C:\OGRESDK_1_9\INCLUDE\OIS\OISINTERFACE.H
C:\OGRESDK_1_9\INCLUDE\OIS\OISMOUSE.H
C:\OGRESDK_1_9\INCLUDE\OGRE\SDKTRAYS.H
C:\OGRESDK_1_9\INCLUDE\OGRE\OGRE.H
C:\OGRESDK_1_9\INCLUDE\OGRE\OGREARCHIVEMANAGER.H
C:\OGRESDK_1_9\INCLUDE\OGRE\OGREBILLBOARDCHAIN.H
C:\OGRESDK_1_9\INCLUDE\OGRE\OGREBILLBOARDSET.H
C:\OGRESDK_1_9\INCLUDE\OGRE\OGRECONTROLLERMANAGER.H
C:\OGRESDK_1_9\INCLUDE\OGRE\OGREPREDEFINEDCONTROLLERS.H
C:\OGRESDK_1_9\INCLUDE\OGRE\OGREGPUPROGRAMMANAGER.H
C:\OGRESDK_1_9\INCLUDE\OGRE\OGREHARDWAREPIXELBUFFER.H
C:\OGRESDK_1_9\INCLUDE\OGRE\OGREHARDWAREOCCLUSIONQUERY.H
C:\OGRESDK_1_9\INCLUDE\OGRE\OGREHIGHLEVELGPUPROGRAM.H
C:\OGRESDK_1_9\INCLUDE\OGRE\OGREHIGHLEVELGPUPROGRAMMANAGER.H
C:\OGRESDK_1_9\INCLUDE\OGRE\OGREINSTANCEBATCH.H
C:\OGRESDK_1_9\INCLUDE\OGRE\OGREINSTANCEDENTITY.H
C:\OGRESDK_1_9\INCLUDE\OGRE\OGREMANUALOBJECT.H
C:\OGRESDK_1_9\INCLUDE\OGRE\OGREMESHMANAGER.H
C:\OGRESDK_1_9\INCLUDE\OGRE\OGREPATCHMESH.H
C:\OGRESDK_1_9\INCLUDE\OGRE\OGREPATCHSURFACE.H
C:\OGRESDK_1_9\INCLUDE\OGRE\OGREMESHSERIALIZER.H
C:\OGRESDK_1_9\INCLUDE\OGRE\OGREMESHSERIALIZERIMPL.H
C:\OGRESDK_1_9\INCLUDE\OGRE\OGREEDGELISTBUILDER.H
C:\OGRESDK_1_9\INCLUDE\OGRE\OGREPARTICLEAFFECTOR.H
C:\OGRESDK_1_9\INCLUDE\OGRE\OGREPARTICLEEMITTER.H
C:\OGRESDK_1_9\INCLUDE\OGRE\OGREPARTICLEEMITTERCOMMANDS.H
C:\OGRESDK_1_9\INCLUDE\OGRE\OGREPARTICLE.H
C:\OGRESDK_1_9\INCLUDE\OGRE\OGREBILLBOARD.H
C:\OGRESDK_1_9\INCLUDE\OGRE\OGREPARTICLESYSTEMMANAGER.H
C:\OGRESDK_1_9\INCLUDE\OGRE\OGREPARTICLESYSTEM.H
C:\OGRESDK_1_9\INCLUDE\OGRE\OGREPARTICLEITERATOR.H
C:\OGRESDK_1_9\INCLUDE\OGRE\OGREPROFILER.H
C:\OGRESDK_1_9\INCLUDE\OGRE\OGRERENDERQUEUEINVOCATION.H
C:\OGRESDK_1_9\INCLUDE\OGRE\OGRERENDERQUEUELISTENER.H
C:\OGRESDK_1_9\INCLUDE\OGRE\OGRERENDEROBJECTLISTENER.H
C:\OGRESDK_1_9\INCLUDE\OGRE\OGRERENDERTARGETLISTENER.H
C:\OGRESDK_1_9\INCLUDE\OGRE\OGRERESOURCEBACKGROUNDQUEUE.H
C:\OGRESDK_1_9\INCLUDE\OGRE\OGRERIBBONTRAIL.H
C:\OGRESDK_1_9\INCLUDE\OGRE\OGRESKELETONMANAGER.H
C:\OGRESDK_1_9\INCLUDE\OGRE\OGRESKELETONSERIALIZER.H
C:\OGRESDK_1_9\INCLUDE\OGRE\OGRESTATICGEOMETRY.H
C:\OGRESDK_1_9\INCLUDE\OGRE\OGRESUBENTITY.H
C:\OGRESDK_1_9\INCLUDE\OGRE\OGRESUBMESH.H
C:\OGRESDK_1_9\INCLUDE\OGRE\OGRECOMPOSITOR.H
C:\OGRESDK_1_9\INCLUDE\OGRE\OGRECOMPOSITORMANAGER.H
C:\OGRESDK_1_9\INCLUDE\OGRE\OGRECOMPOSITIONTECHNIQUE.H
C:\OGRESDK_1_9\INCLUDE\OGRE\OGRECOMPOSITORCHAIN.H
C:\OGRESDK_1_9\INCLUDE\OGRE\OGRECOMPOSITORINSTANCE.H
C:\OGRESDK_1_9\INCLUDE\OGRE\OGRECOMPOSITIONPASS.H
C:\OGRESDK_1_9\INCLUDE\OGRE\OGRECOMPOSITIONTARGETPASS.H
C:\OGRESDK_1_9\INCLUDE\OGRE\OGREWINDOWEVENTUTILITIES.H
C:\OGRESDK_1_9\INCLUDE\OGRE\OGRESHADOWCAMERASETUPFOCUSED.H
C:\OGRESDK_1_9\INCLUDE\OGRE\OGREPOLYGON.H
C:\OGRESDK_1_9\INCLUDE\OGRE\OGRECONVEXBODY.H
C:\OGRESDK_1_9\INCLUDE\OGRE\OGRESHADOWCAMERASETUPLISPSM.H
C:\OGRESDK_1_9\INCLUDE\OGRE\OGRESHADOWCAMERASETUPPLANEOPTIMAL.H
C:\OGRESDK_1_9\INCLUDE\OGRE\OGRESHADOWCAMERASETUPPSSM.H
C:\OGRESDK_1_9\INCLUDE\OGRE\OVERLAY\OGREOVERLAYSYSTEM.H
C:\OGRESDK_1_9\INCLUDE\OGRE\OVERLAY\OGREOVERLAY.H
C:\OGRESDK_1_9\INCLUDE\OGRE\OVERLAY\OGREOVERLAYPREREQUISITES.H
C:\OGRESDK_1_9\INCLUDE\OGRE\OVERLAY\OGREOVERLAYCONTAINER.H
C:\OGRESDK_1_9\INCLUDE\OGRE\OVERLAY\OGREOVERLAYELEMENT.H
C:\OGRESDK_1_9\INCLUDE\OGRE\OGREUTFSTRING.H
C:\PROGRAM FILES (X86)\MICROSOFT VISUAL STUDIO\2019\COMMUNITY\VC\TOOLS\MSVC\14.21.27702\INCLUDE\ITERATOR
C:\OGRESDK_1_9\INCLUDE\OGRE\OVERLAY\OGREOVERLAYELEMENTCOMMANDS.H
C:\OGRESDK_1_9\INCLUDE\OGRE\OVERLAY\OGREOVERLAYMANAGER.H
C:\OGRESDK_1_9\INCLUDE\OGRE\OVERLAY\OGREFONTMANAGER.H
C:\OGRESDK_1_9\INCLUDE\OGRE\OVERLAY\OGREFONT.H
C:\OGRESDK_1_9\INCLUDE\OGRE\OVERLAY\OGREBORDERPANELOVERLAYELEMENT.H
C:\OGRESDK_1_9\INCLUDE\OGRE\OVERLAY\OGREPANELOVERLAYELEMENT.H
C:\OGRESDK_1_9\INCLUDE\OGRE\OVERLAY\OGRETEXTAREAOVERLAYELEMENT.H
C:\OGRESDK_1_9\INCLUDE\OGRE\OVERLAY\OGREOVERLAYELEMENTFACTORY.H
C:\OGRESDK_1_9\INCLUDE\OGRE\INPUTCONTEXT.H
C:\OGRESDK_1_9\INCLUDE\OIS\OIS.H
C:\OGRESDK_1_9\INCLUDE\OIS\OISJOYSTICK.H
C:\OGRESDK_1_9\INCLUDE\OIS\OISMULTITOUCH.H
C:\OGRESDK_1_9\INCLUDE\OIS\OISFACTORYCREATOR.H
C:\OGRESDK_1_9\INCLUDE\OIS\OISEXCEPTION.H
C:\OGRESDK_1_9\INCLUDE\OIS\OISEFFECT.H
C:\OGRESDK_1_9\INCLUDE\OIS\OISFORCEFEEDBACK.H
C:\OGRESDK_1_9\INCLUDE\OGRE\SDKCAMERAMAN.H
C:\PROGRAM FILES (X86)\MICROSOFT VISUAL STUDIO\2017\COMMUNITY\VC\TOOLS\MSVC\14.16.27023\INCLUDE\STRING
C:\PROGRAM FILES (X86)\MICROSOFT VISUAL STUDIO\2017\COMMUNITY\VC\TOOLS\MSVC\14.16.27023\INCLUDE\ISTREAM
C:\PROGRAM FILES (X86)\MICROSOFT VISUAL STUDIO\2017\COMMUNITY\VC\TOOLS\MSVC\14.16.27023\INCLUDE\OSTREAM
C:\PROGRAM FILES (X86)\MICROSOFT VISUAL STUDIO\2017\COMMUNITY\VC\TOOLS\MSVC\14.16.27023\INCLUDE\IOS
C:\PROGRAM FILES (X86)\MICROSOFT VISUAL STUDIO\2017\COMMUNITY\VC\TOOLS\MSVC\14.16.27023\INCLUDE\XLOCNUM
C:\PROGRAM FILES (X86)\MICROSOFT VISUAL STUDIO\2017\COMMUNITY\VC\TOOLS\MSVC\14.16.27023\INCLUDE\CLIMITS
C:\PROGRAM FILES (X86)\MICROSOFT VISUAL STUDIO\2017\COMMUNITY\VC\TOOLS\MSVC\14.16.27023\INCLUDE\YVALS.H
C:\PROGRAM FILES (X86)\MICROSOFT VISUAL STUDIO\2017\COMMUNITY\VC\TOOLS\MSVC\14.16.27023\INCLUDE\YVALS_CORE.H
C:\PROGRAM FILES (X86)\MICROSOFT VISUAL STUDIO\2017\COMMUNITY\VC\TOOLS\MSVC\14.16.27023\INCLUDE\XKEYCHECK.H
C:\PROGRAM FILES (X86)\MICROSOFT VISUAL STUDIO\2017\COMMUNITY\VC\TOOLS\MSVC\14.16.27023\INCLUDE\CRTDEFS.H
C:\PROGRAM FILES (X86)\MICROSOFT VISUAL STUDIO\2017\COMMUNITY\VC\TOOLS\MSVC\14.16.27023\INCLUDE\VCRUNTIME.H
C:\PROGRAM FILES (X86)\MICROSOFT VISUAL STUDIO\2017\COMMUNITY\VC\TOOLS\MSVC\14.16.27023\INCLUDE\SAL.H
C:\PROGRAM FILES (X86)\MICROSOFT VISUAL STUDIO\2017\COMMUNITY\VC\TOOLS\MSVC\14.16.27023\INCLUDE\CONCURRENCYSAL.H
C:\PROGRAM FILES (X86)\MICROSOFT VISUAL STUDIO\2017\COMMUNITY\VC\TOOLS\MSVC\14.16.27023\INCLUDE\VADEFS.H
C:\PROGRAM FILES (X86)\MICROSOFT VISUAL STUDIO\2017\COMMUNITY\VC\TOOLS\MSVC\14.16.27023\INCLUDE\VCRUNTIME_NEW_DEBUG.H
C:\PROGRAM FILES (X86)\MICROSOFT VISUAL STUDIO\2017\COMMUNITY\VC\TOOLS\MSVC\14.16.27023\INCLUDE\VCRUNTIME_NEW.H
C:\PROGRAM FILES (X86)\MICROSOFT VISUAL STUDIO\2017\COMMUNITY\VC\TOOLS\MSVC\14.16.27023\INCLUDE\USE_ANSI.H
C:\PROGRAM FILES (X86)\MICROSOFT VISUAL STUDIO\2017\COMMUNITY\VC\TOOLS\MSVC\14.16.27023\INCLUDE\LIMITS.H
C:\PROGRAM FILES (X86)\MICROSOFT VISUAL STUDIO\2017\COMMUNITY\VC\TOOLS\MSVC\14.16.27023\INCLUDE\CMATH
C:\PROGRAM FILES (X86)\MICROSOFT VISUAL STUDIO\2017\COMMUNITY\VC\TOOLS\MSVC\14.16.27023\INCLUDE\CSTDLIB
C:\PROGRAM FILES (X86)\MICROSOFT VISUAL STUDIO\2017\COMMUNITY\VC\TOOLS\MSVC\14.16.27023\INCLUDE\XTGMATH.H
C:\PROGRAM FILES (X86)\MICROSOFT VISUAL STUDIO\2017\COMMUNITY\VC\TOOLS\MSVC\14.16.27023\INCLUDE\XTR1COMMON
C:\PROGRAM FILES (X86)\MICROSOFT VISUAL STUDIO\2017\COMMUNITY\VC\TOOLS\MSVC\14.16.27023\INCLUDE\CSTDIO
C:\PROGRAM FILES (X86)\MICROSOFT VISUAL STUDIO\2017\COMMUNITY\VC\TOOLS\MSVC\14.16.27023\INCLUDE\STREAMBUF
C:\PROGRAM FILES (X86)\MICROSOFT VISUAL STUDIO\2017\COMMUNITY\VC\TOOLS\MSVC\14.16.27023\INCLUDE\XIOSBASE
C:\PROGRAM FILES (X86)\MICROSOFT VISUAL STUDIO\2017\COMMUNITY\VC\TOOLS\MSVC\14.16.27023\INCLUDE\XLOCALE
C:\PROGRAM FILES (X86)\MICROSOFT VISUAL STUDIO\2017\COMMUNITY\VC\TOOLS\MSVC\14.16.27023\INCLUDE\CSTRING
C:\PROGRAM FILES (X86)\MICROSOFT VISUAL STUDIO\2017\COMMUNITY\VC\TOOLS\MSVC\14.16.27023\INCLUDE\VCRUNTIME_STRING.H
C:\PROGRAM FILES (X86)\MICROSOFT VISUAL STUDIO\2017\COMMUNITY\VC\TOOLS\MSVC\14.16.27023\INCLUDE\STDEXCEPT
C:\PROGRAM FILES (X86)\MICROSOFT VISUAL STUDIO\2017\COMMUNITY\VC\TOOLS\MSVC\14.16.27023\INCLUDE\EXCEPTION
C:\PROGRAM FILES (X86)\MICROSOFT VISUAL STUDIO\2017\COMMUNITY\VC\TOOLS\MSVC\14.16.27023\INCLUDE\TYPE_TRAITS
C:\PROGRAM FILES (X86)\MICROSOFT VISUAL STUDIO\2017\COMMUNITY\VC\TOOLS\MSVC\14.16.27023\INCLUDE\XSTDDEF
C:\PROGRAM FILES (X86)\MICROSOFT VISUAL STUDIO\2017\COMMUNITY\VC\TOOLS\MSVC\14.16.27023\INCLUDE\CSTDDEF
C:\PROGRAM FILES (X86)\MICROSOFT VISUAL STUDIO\2017\COMMUNITY\VC\TOOLS\MSVC\14.16.27023\INCLUDE\INITIALIZER_LIST
C:\PROGRAM FILES (X86)\MICROSOFT VISUAL STUDIO\2017\COMMUNITY\VC\TOOLS\MSVC\14.16.27023\INCLUDE\VCRUNTIME_EXCEPTION.H
C:\PROGRAM FILES (X86)\MICROSOFT VISUAL STUDIO\2017\COMMUNITY\VC\TOOLS\MSVC\14.16.27023\INCLUDE\EH.H
C:\PROGRAM FILES (X86)\MICROSOFT VISUAL STUDIO\2017\COMMUNITY\VC\TOOLS\MSVC\14.16.27023\INCLUDE\XSTRING
C:\PROGRAM FILES (X86)\MICROSOFT VISUAL STUDIO\2017\COMMUNITY\VC\TOOLS\MSVC\14.16.27023\INCLUDE\XMEMORY0
C:\PROGRAM FILES (X86)\MICROSOFT VISUAL STUDIO\2017\COMMUNITY\VC\TOOLS\MSVC\14.16.27023\INCLUDE\CSTDINT
C:\PROGRAM FILES (X86)\MICROSOFT VISUAL STUDIO\2017\COMMUNITY\VC\TOOLS\MSVC\14.16.27023\INCLUDE\STDINT.H
C:\PROGRAM FILES (X86)\MICROSOFT VISUAL STUDIO\2017\COMMUNITY\VC\TOOLS\MSVC\14.16.27023\INCLUDE\LIMITS
C:\PROGRAM FILES (X86)\MICROSOFT VISUAL STUDIO\2017\COMMUNITY\VC\TOOLS\MSVC\14.16.27023\INCLUDE\YMATH.H
C:\PROGRAM FILES (X86)\MICROSOFT VISUAL STUDIO\2017\COMMUNITY\VC\TOOLS\MSVC\14.16.27023\INCLUDE\CFLOAT
C:\PROGRAM FILES (X86)\MICROSOFT VISUAL STUDIO\2017\COMMUNITY\VC\TOOLS\MSVC\14.16.27023\INCLUDE\CWCHAR
C:\PROGRAM FILES (X86)\MICROSOFT VISUAL STUDIO\2017\COMMUNITY\VC\TOOLS\MSVC\14.16.27023\INCLUDE\NEW
C:\PROGRAM FILES (X86)\MICROSOFT VISUAL STUDIO\2017\COMMUNITY\VC\TOOLS\MSVC\14.16.27023\INCLUDE\XUTILITY
C:\PROGRAM FILES (X86)\MICROSOFT VISUAL STUDIO\2017\COMMUNITY\VC\TOOLS\MSVC\14.16.27023\INCLUDE\UTILITY
C:\PROGRAM FILES (X86)\MICROSOFT VISUAL STUDIO\2017\COMMUNITY\VC\TOOLS\MSVC\14.16.27023\INCLUDE\IOSFWD
C:\PROGRAM FILES (X86)\MICROSOFT VISUAL STUDIO\2017\COMMUNITY\VC\TOOLS\MSVC\14.16.27023\INCLUDE\XATOMIC0.H
C:\PROGRAM FILES (X86)\MICROSOFT VISUAL STUDIO\2017\COMMUNITY\VC\TOOLS\MSVC\14.16.27023\INCLUDE\INTRIN0.H
C:\PROGRAM FILES (X86)\MICROSOFT VISUAL STUDIO\2017\COMMUNITY\VC\TOOLS\MSVC\14.16.27023\INCLUDE\TYPEINFO
C:\PROGRAM FILES (X86)\MICROSOFT VISUAL STUDIO\2017\COMMUNITY\VC\TOOLS\MSVC\14.16.27023\INCLUDE\VCRUNTIME_TYPEINFO.H
C:\PROGRAM FILES (X86)\MICROSOFT VISUAL STUDIO\2017\COMMUNITY\VC\TOOLS\MSVC\14.16.27023\INCLUDE\XLOCINFO
C:\PROGRAM FILES (X86)\MICROSOFT VISUAL STUDIO\2017\COMMUNITY\VC\TOOLS\MSVC\14.16.27023\INCLUDE\XLOCINFO.H
C:\PROGRAM FILES (X86)\MICROSOFT VISUAL STUDIO\2017\COMMUNITY\VC\TOOLS\MSVC\14.16.27023\INCLUDE\MEMORY
C:\PROGRAM FILES (X86)\MICROSOFT VISUAL STUDIO\2017\COMMUNITY\VC\TOOLS\MSVC\14.16.27023\INCLUDE\XMEMORY
C:\PROGRAM FILES (X86)\MICROSOFT VISUAL STUDIO\2017\COMMUNITY\VC\TOOLS\MSVC\14.16.27023\INCLUDE\XFACET
C:\PROGRAM FILES (X86)\MICROSOFT VISUAL STUDIO\2017\COMMUNITY\VC\TOOLS\MSVC\14.16.27023\INCLUDE\SYSTEM_ERROR
C:\PROGRAM FILES (X86)\MICROSOFT VISUAL STUDIO\2017\COMMUNITY\VC\TOOLS\MSVC\14.16.27023\INCLUDE\CERRNO
C:\PROGRAM FILES (X86)\MICROSOFT VISUAL STUDIO\2017\COMMUNITY\VC\TOOLS\MSVC\14.16.27023\INCLUDE\XCALL_ONCE.H
C:\PROGRAM FILES (X86)\MICROSOFT VISUAL STUDIO\2017\COMMUNITY\VC\TOOLS\MSVC\14.16.27023\INCLUDE\XERRC.H
C:\PROGRAM FILES (X86)\MICROSOFT VISUAL STUDIO\2017\COMMUNITY\VC\TOOLS\MSVC\14.16.27023\INCLUDE\XSTRING_INSERT.H
C:\PROGRAM FILES (X86)\MICROSOFT VISUAL STUDIO\2017\COMMUNITY\VC\TOOLS\MSVC\14.16.27023\INCLUDE\CASSERT
C:\PROGRAM FILES (X86)\MICROSOFT VISUAL STUDIO\2017\COMMUNITY\VC\TOOLS\MSVC\14.16.27023\INCLUDE\CTIME
C:\PROGRAM FILES (X86)\MICROSOFT VISUAL STUDIO\2017\COMMUNITY\VC\TOOLS\MSVC\14.16.27023\INCLUDE\CSTDARG
C:\PROGRAM FILES (X86)\MICROSOFT VISUAL STUDIO\2017\COMMUNITY\VC\TOOLS\MSVC\14.16.27023\INCLUDE\STDARG.H
C:\PROGRAM FILES (X86)\MICROSOFT VISUAL STUDIO\2017\COMMUNITY\VC\TOOLS\MSVC\14.16.27023\INCLUDE\VECTOR
C:\PROGRAM FILES (X86)\MICROSOFT VISUAL STUDIO\2017\COMMUNITY\VC\TOOLS\MSVC\14.16.27023\INCLUDE\MAP
C:\PROGRAM FILES (X86)\MICROSOFT VISUAL STUDIO\2017\COMMUNITY\VC\TOOLS\MSVC\14.16.27023\INCLUDE\TUPLE
C:\PROGRAM FILES (X86)\MICROSOFT VISUAL STUDIO\2017\COMMUNITY\VC\TOOLS\MSVC\14.16.27023\INCLUDE\XTREE
C:\PROGRAM FILES (X86)\MICROSOFT VISUAL STUDIO\2017\COMMUNITY\VC\TOOLS\MSVC\14.16.27023\INCLUDE\SET
C:\PROGRAM FILES (X86)\MICROSOFT VISUAL STUDIO\2017\COMMUNITY\VC\TOOLS\MSVC\14.16.27023\INCLUDE\LIST
C:\PROGRAM FILES (X86)\MICROSOFT VISUAL STUDIO\2017\COMMUNITY\VC\TOOLS\MSVC\14.16.27023\INCLUDE\DEQUE
C:\PROGRAM FILES (X86)\MICROSOFT VISUAL STUDIO\2017\COMMUNITY\VC\TOOLS\MSVC\14.16.27023\INCLUDE\QUEUE
C:\PROGRAM FILES (X86)\MICROSOFT VISUAL STUDIO\2017\COMMUNITY\VC\TOOLS\MSVC\14.16.27023\INCLUDE\ALGORITHM
C:\PROGRAM FILES (X86)\MICROSOFT VISUAL STUDIO\2017\COMMUNITY\VC\TOOLS\MSVC\14.16.27023\INCLUDE\BITSET
C:\PROGRAM FILES (X86)\MICROSOFT VISUAL STUDIO\2017\COMMUNITY\VC\TOOLS\MSVC\14.16.27023\INCLUDE\UNORDERED_MAP
C:\PROGRAM FILES (X86)\MICROSOFT VISUAL STUDIO\2017\COMMUNITY\VC\TOOLS\MSVC\14.16.27023\INCLUDE\XHASH
C:\PROGRAM FILES (X86)\MICROSOFT VISUAL STUDIO\2017\COMMUNITY\VC\TOOLS\MSVC\14.16.27023\INCLUDE\UNORDERED_SET
C:\PROGRAM FILES (X86)\MICROSOFT VISUAL STUDIO\2017\COMMUNITY\VC\TOOLS\MSVC\14.16.27023\INCLUDE\FUNCTIONAL
C:\PROGRAM FILES (X86)\MICROSOFT VISUAL STUDIO\2017\COMMUNITY\VC\TOOLS\MSVC\14.16.27023\INCLUDE\FSTREAM
C:\PROGRAM FILES (X86)\MICROSOFT VISUAL STUDIO\2017\COMMUNITY\VC\TOOLS\MSVC\14.16.27023\INCLUDE\IOSTREAM
C:\PROGRAM FILES (X86)\MICROSOFT VISUAL STUDIO\2017\COMMUNITY\VC\TOOLS\MSVC\14.16.27023\INCLUDE\IOMANIP
C:\PROGRAM FILES (X86)\MICROSOFT VISUAL STUDIO\2017\COMMUNITY\VC\TOOLS\MSVC\14.16.27023\INCLUDE\XLOCMON
C:\PROGRAM FILES (X86)\MICROSOFT VISUAL STUDIO\2017\COMMUNITY\VC\TOOLS\MSVC\14.16.27023\INCLUDE\XLOCTIME
C:\PROGRAM FILES (X86)\MICROSOFT VISUAL STUDIO\2017\COMMUNITY\VC\TOOLS\MSVC\14.16.27023\INCLUDE\SSTREAM
C:\PROGRAM FILES (X86)\MICROSOFT VISUAL STUDIO\2017\COMMUNITY\VC\TOOLS\MSVC\14.16.27023\INCLUDE\EXCPT.H
C:\PROGRAM FILES (X86)\MICROSOFT VISUAL STUDIO\2017\COMMUNITY\VC\TOOLS\MSVC\14.16.27023\INCLUDE\ITERATOR
^C:\USERS\JUSTIN\SOURCE\REPOS\OGRE3D BASE PROJECT\1 - SETUP BASICS\PLANET.CPP
C:\USERS\JUSTIN\SOURCE\REPOS\OGRE3D BASE PROJECT\1 - SETUP BASICS\PLANET.H
C:\OGRESDK_1_9\INCLUDE\OGRE\OGRECAMERA.H
C:\OGRESDK_1_9\INCLUDE\OGRE\OGREPREREQUISITES.H
C:\OGRESDK_1_9\INCLUDE\OGRE\OGREPLATFORM.H
C:\OGRESDK_1_9\INCLUDE\OGRE\OGRECONFIG.H
C:\OGRESDK_1_9\INCLUDE\OGRE\OGREBUILDSETTINGS.H
C:\PROGRAM FILES (X86)\MICROSOFT VISUAL STUDIO\2019\COMMUNITY\VC\TOOLS\MSVC\14.21.27702\INCLUDE\STRING
C:\PROGRAM FILES (X86)\MICROSOFT VISUAL STUDIO\2019\COMMUNITY\VC\TOOLS\MSVC\14.21.27702\INCLUDE\XSTRING
C:\PROGRAM FILES (X86)\MICROSOFT VISUAL STUDIO\2019\COMMUNITY\VC\TOOLS\MSVC\14.21.27702\INCLUDE\IOSFWD
C:\PROGRAM FILES (X86)\MICROSOFT VISUAL STUDIO\2019\COMMUNITY\VC\TOOLS\MSVC\14.21.27702\INCLUDE\YVALS.H
C:\PROGRAM FILES (X86)\MICROSOFT VISUAL STUDIO\2019\COMMUNITY\VC\TOOLS\MSVC\14.21.27702\INCLUDE\YVALS_CORE.H
C:\PROGRAM FILES (X86)\MICROSOFT VISUAL STUDIO\2019\COMMUNITY\VC\TOOLS\MSVC\14.21.27702\INCLUDE\CRTDEFS.H
C:\PROGRAM FILES (X86)\MICROSOFT VISUAL STUDIO\2019\COMMUNITY\VC\TOOLS\MSVC\14.21.27702\INCLUDE\VCRUNTIME.H
C:\PROGRAM FILES (X86)\MICROSOFT VISUAL STUDIO\2019\COMMUNITY\VC\TOOLS\MSVC\14.21.27702\INCLUDE\SAL.H
C:\PROGRAM FILES (X86)\MICROSOFT VISUAL STUDIO\2019\COMMUNITY\VC\TOOLS\MSVC\14.21.27702\INCLUDE\CONCURRENCYSAL.H
C:\PROGRAM FILES (X86)\MICROSOFT VISUAL STUDIO\2019\COMMUNITY\VC\TOOLS\MSVC\14.21.27702\INCLUDE\VADEFS.H
C:\PROGRAM FILES (X86)\WINDOWS KITS\10\INCLUDE\10.0.17763.0\UCRT\CORECRT.H
C:\PROGRAM FILES (X86)\MICROSOFT VISUAL STUDIO\2019\COMMUNITY\VC\TOOLS\MSVC\14.21.27702\INCLUDE\XKEYCHECK.H
C:\PROGRAM FILES (X86)\WINDOWS KITS\10\INCLUDE\10.0.17763.0\UCRT\CRTDBG.H
C:\PROGRAM FILES (X86)\MICROSOFT VISUAL STUDIO\2019\COMMUNITY\VC\TOOLS\MSVC\14.21.27702\INCLUDE\VCRUNTIME_NEW_DEBUG.H
C:\PROGRAM FILES (X86)\MICROSOFT VISUAL STUDIO\2019\COMMUNITY\VC\TOOLS\MSVC\14.21.27702\INCLUDE\VCRUNTIME_NEW.H
C:\PROGRAM FILES (X86)\MICROSOFT VISUAL STUDIO\2019\COMMUNITY\VC\TOOLS\MSVC\14.21.27702\INCLUDE\USE_ANSI.H
C:\PROGRAM FILES (X86)\MICROSOFT VISUAL STUDIO\2019\COMMUNITY\VC\TOOLS\MSVC\14.21.27702\INCLUDE\CSTDIO
C:\PROGRAM FILES (X86)\WINDOWS KITS\10\INCLUDE\10.0.17763.0\UCRT\STDIO.H
C:\PROGRAM FILES (X86)\WINDOWS KITS\10\INCLUDE\10.0.17763.0\UCRT\CORECRT_WSTDIO.H
C:\PROGRAM FILES (X86)\WINDOWS KITS\10\INCLUDE\10.0.17763.0\UCRT\CORECRT_STDIO_CONFIG.H
C:\PROGRAM FILES (X86)\MICROSOFT VISUAL STUDIO\2019\COMMUNITY\VC\TOOLS\MSVC\14.21.27702\INCLUDE\CSTRING
C:\PROGRAM FILES (X86)\WINDOWS KITS\10\INCLUDE\10.0.17763.0\UCRT\STRING.H
C:\PROGRAM FILES (X86)\WINDOWS KITS\10\INCLUDE\10.0.17763.0\UCRT\CORECRT_MEMORY.H
C:\PROGRAM FILES (X86)\WINDOWS KITS\10\INCLUDE\10.0.17763.0\UCRT\CORECRT_MEMCPY_S.H
C:\PROGRAM FILES (X86)\WINDOWS KITS\10\INCLUDE\10.0.17763.0\UCRT\ERRNO.H
C:\PROGRAM FILES (X86)\MICROSOFT VISUAL STUDIO\2019\COMMUNITY\VC\TOOLS\MSVC\14.21.27702\INCLUDE\VCRUNTIME_STRING.H
C:\PROGRAM FILES (X86)\WINDOWS KITS\10\INCLUDE\10.0.17763.0\UCRT\CORECRT_WSTRING.H
C:\PROGRAM FILES (X86)\MICROSOFT VISUAL STUDIO\2019\COMMUNITY\VC\TOOLS\MSVC\14.21.27702\INCLUDE\CWCHAR
C:\PROGRAM FILES (X86)\WINDOWS KITS\10\INCLUDE\10.0.17763.0\UCRT\WCHAR.H
C:\PROGRAM FILES (X86)\WINDOWS KITS\10\INCLUDE\10.0.17763.0\UCRT\CORECRT_WCONIO.H
C:\PROGRAM FILES (X86)\WINDOWS KITS\10\INCLUDE\10.0.17763.0\UCRT\CORECRT_WCTYPE.H
C:\PROGRAM FILES (X86)\WINDOWS KITS\10\INCLUDE\10.0.17763.0\UCRT\CORECRT_WDIRECT.H
C:\PROGRAM FILES (X86)\WINDOWS KITS\10\INCLUDE\10.0.17763.0\UCRT\CORECRT_WIO.H
C:\PROGRAM FILES (X86)\WINDOWS KITS\10\INCLUDE\10.0.17763.0\UCRT\CORECRT_SHARE.H
C:\PROGRAM FILES (X86)\WINDOWS KITS\10\INCLUDE\10.0.17763.0\UCRT\CORECRT_WPROCESS.H
C:\PROGRAM FILES (X86)\WINDOWS KITS\10\INCLUDE\10.0.17763.0\UCRT\CORECRT_WSTDLIB.H
C:\PROGRAM FILES (X86)\WINDOWS KITS\10\INCLUDE\10.0.17763.0\UCRT\CORECRT_WTIME.H
C:\PROGRAM FILES (X86)\WINDOWS KITS\10\INCLUDE\10.0.17763.0\UCRT\SYS\STAT.H
C:\PROGRAM FILES (X86)\WINDOWS KITS\10\INCLUDE\10.0.17763.0\UCRT\SYS\TYPES.H
C:\PROGRAM FILES (X86)\MICROSOFT VISUAL STUDIO\2019\COMMUNITY\VC\TOOLS\MSVC\14.21.27702\INCLUDE\XSTDDEF
C:\PROGRAM FILES (X86)\MICROSOFT VISUAL STUDIO\2019\COMMUNITY\VC\TOOLS\MSVC\14.21.27702\INCLUDE\CSTDDEF
C:\PROGRAM FILES (X86)\WINDOWS KITS\10\INCLUDE\10.0.17763.0\UCRT\STDDEF.H
C:\PROGRAM FILES (X86)\MICROSOFT VISUAL STUDIO\2019\COMMUNITY\VC\TOOLS\MSVC\14.21.27702\INCLUDE\XTR1COMMON
C:\PROGRAM FILES (X86)\MICROSOFT VISUAL STUDIO\2019\COMMUNITY\VC\TOOLS\MSVC\14.21.27702\INCLUDE\CSTDLIB
C:\PROGRAM FILES (X86)\WINDOWS KITS\10\INCLUDE\10.0.17763.0\UCRT\MATH.H
C:\PROGRAM FILES (X86)\WINDOWS KITS\10\INCLUDE\10.0.17763.0\UCRT\CORECRT_MATH.H
C:\PROGRAM FILES (X86)\WINDOWS KITS\10\INCLUDE\10.0.17763.0\UCRT\STDLIB.H
C:\PROGRAM FILES (X86)\WINDOWS KITS\10\INCLUDE\10.0.17763.0\UCRT\CORECRT_MALLOC.H
C:\PROGRAM FILES (X86)\WINDOWS KITS\10\INCLUDE\10.0.17763.0\UCRT\CORECRT_SEARCH.H
C:\PROGRAM FILES (X86)\MICROSOFT VISUAL STUDIO\2019\COMMUNITY\VC\TOOLS\MSVC\14.21.27702\INCLUDE\LIMITS.H
C:\PROGRAM FILES (X86)\MICROSOFT VISUAL STUDIO\2019\COMMUNITY\VC\TOOLS\MSVC\14.21.27702\INCLUDE\INITIALIZER_LIST
C:\PROGRAM FILES (X86)\MICROSOFT VISUAL STUDIO\2019\COMMUNITY\VC\TOOLS\MSVC\14.21.27702\INCLUDE\XMEMORY0
C:\PROGRAM FILES (X86)\MICROSOFT VISUAL STUDIO\2019\COMMUNITY\VC\TOOLS\MSVC\14.21.27702\INCLUDE\CSTDINT
C:\PROGRAM FILES (X86)\MICROSOFT VISUAL STUDIO\2019\COMMUNITY\VC\TOOLS\MSVC\14.21.27702\INCLUDE\STDINT.H
C:\PROGRAM FILES (X86)\MICROSOFT VISUAL STUDIO\2019\COMMUNITY\VC\TOOLS\MSVC\14.21.27702\INCLUDE\LIMITS
C:\PROGRAM FILES (X86)\MICROSOFT VISUAL STUDIO\2019\COMMUNITY\VC\TOOLS\MSVC\14.21.27702\INCLUDE\CFLOAT
C:\PROGRAM FILES (X86)\WINDOWS KITS\10\INCLUDE\10.0.17763.0\UCRT\FLOAT.H
C:\PROGRAM FILES (X86)\MICROSOFT VISUAL STUDIO\2019\COMMUNITY\VC\TOOLS\MSVC\14.21.27702\INCLUDE\CLIMITS
C:\PROGRAM FILES (X86)\MICROSOFT VISUAL STUDIO\2019\COMMUNITY\VC\TOOLS\MSVC\14.21.27702\INCLUDE\NEW
C:\PROGRAM FILES (X86)\MICROSOFT VISUAL STUDIO\2019\COMMUNITY\VC\TOOLS\MSVC\14.21.27702\INCLUDE\EXCEPTION
C:\PROGRAM FILES (X86)\MICROSOFT VISUAL STUDIO\2019\COMMUNITY\VC\TOOLS\MSVC\14.21.27702\INCLUDE\TYPE_TRAITS
C:\PROGRAM FILES (X86)\WINDOWS KITS\10\INCLUDE\10.0.17763.0\UCRT\MALLOC.H
C:\PROGRAM FILES (X86)\MICROSOFT VISUAL STUDIO\2019\COMMUNITY\VC\TOOLS\MSVC\14.21.27702\INCLUDE\VCRUNTIME_EXCEPTION.H
C:\PROGRAM FILES (X86)\MICROSOFT VISUAL STUDIO\2019\COMMUNITY\VC\TOOLS\MSVC\14.21.27702\INCLUDE\EH.H
C:\PROGRAM FILES (X86)\WINDOWS KITS\10\INCLUDE\10.0.17763.0\UCRT\CORECRT_TERMINATE.H
C:\PROGRAM FILES (X86)\MICROSOFT VISUAL STUDIO\2019\COMMUNITY\VC\TOOLS\MSVC\14.21.27702\INCLUDE\XATOMIC.H
C:\PROGRAM FILES (X86)\MICROSOFT VISUAL STUDIO\2019\COMMUNITY\VC\TOOLS\MSVC\14.21.27702\INCLUDE\INTRIN0.H
C:\PROGRAM FILES (X86)\MICROSOFT VISUAL STUDIO\2019\COMMUNITY\VC\TOOLS\MSVC\14.21.27702\INCLUDE\XUTILITY
C:\PROGRAM FILES (X86)\MICROSOFT VISUAL STUDIO\2019\COMMUNITY\VC\TOOLS\MSVC\14.21.27702\INCLUDE\UTILITY
C:\PROGRAM FILES (X86)\MICROSOFT VISUAL STUDIO\2019\COMMUNITY\VC\TOOLS\MSVC\14.21.27702\INCLUDE\CCTYPE
C:\PROGRAM FILES (X86)\WINDOWS KITS\10\INCLUDE\10.0.17763.0\UCRT\CTYPE.H
C:\OGRESDK_1_9\INCLUDE\OGRE\OGRESTDHEADERS.H
C:\PROGRAM FILES (X86)\MICROSOFT VISUAL STUDIO\2019\COMMUNITY\VC\TOOLS\MSVC\14.21.27702\INCLUDE\CASSERT
C:\PROGRAM FILES (X86)\WINDOWS KITS\10\INCLUDE\10.0.17763.0\UCRT\ASSERT.H
C:\PROGRAM FILES (X86)\MICROSOFT VISUAL STUDIO\2019\COMMUNITY\VC\TOOLS\MSVC\14.21.27702\INCLUDE\CTIME
C:\PROGRAM FILES (X86)\WINDOWS KITS\10\INCLUDE\10.0.17763.0\UCRT\TIME.H
C:\PROGRAM FILES (X86)\MICROSOFT VISUAL STUDIO\2019\COMMUNITY\VC\TOOLS\MSVC\14.21.27702\INCLUDE\CSTDARG
C:\PROGRAM FILES (X86)\MICROSOFT VISUAL STUDIO\2019\COMMUNITY\VC\TOOLS\MSVC\14.21.27702\INCLUDE\STDARG.H
C:\PROGRAM FILES (X86)\MICROSOFT VISUAL STUDIO\2019\COMMUNITY\VC\TOOLS\MSVC\14.21.27702\INCLUDE\CMATH
C:\PROGRAM FILES (X86)\MICROSOFT VISUAL STUDIO\2019\COMMUNITY\VC\TOOLS\MSVC\14.21.27702\INCLUDE\XTGMATH.H
C:\PROGRAM FILES (X86)\MICROSOFT VISUAL STUDIO\2019\COMMUNITY\VC\TOOLS\MSVC\14.21.27702\INCLUDE\VECTOR
C:\PROGRAM FILES (X86)\MICROSOFT VISUAL STUDIO\2019\COMMUNITY\VC\TOOLS\MSVC\14.21.27702\INCLUDE\XMEMORY
C:\PROGRAM FILES (X86)\MICROSOFT VISUAL STUDIO\2019\COMMUNITY\VC\TOOLS\MSVC\14.21.27702\INCLUDE\MAP
C:\PROGRAM FILES (X86)\MICROSOFT VISUAL STUDIO\2019\COMMUNITY\VC\TOOLS\MSVC\14.21.27702\INCLUDE\TUPLE
C:\PROGRAM FILES (X86)\MICROSOFT VISUAL STUDIO\2019\COMMUNITY\VC\TOOLS\MSVC\14.21.27702\INCLUDE\XTREE
C:\PROGRAM FILES (X86)\MICROSOFT VISUAL STUDIO\2019\COMMUNITY\VC\TOOLS\MSVC\14.21.27702\INCLUDE\SET
C:\PROGRAM FILES (X86)\MICROSOFT VISUAL STUDIO\2019\COMMUNITY\VC\TOOLS\MSVC\14.21.27702\INCLUDE\LIST
C:\PROGRAM FILES (X86)\MICROSOFT VISUAL STUDIO\2019\COMMUNITY\VC\TOOLS\MSVC\14.21.27702\INCLUDE\DEQUE
C:\PROGRAM FILES (X86)\MICROSOFT VISUAL STUDIO\2019\COMMUNITY\VC\TOOLS\MSVC\14.21.27702\INCLUDE\QUEUE
C:\PROGRAM FILES (X86)\MICROSOFT VISUAL STUDIO\2019\COMMUNITY\VC\TOOLS\MSVC\14.21.27702\INCLUDE\ALGORITHM
C:\PROGRAM FILES (X86)\MICROSOFT VISUAL STUDIO\2019\COMMUNITY\VC\TOOLS\MSVC\14.21.27702\INCLUDE\BITSET
C:\PROGRAM FILES (X86)\MICROSOFT VISUAL STUDIO\2019\COMMUNITY\VC\TOOLS\MSVC\14.21.27702\INCLUDE\UNORDERED_MAP
C:\PROGRAM FILES (X86)\MICROSOFT VISUAL STUDIO\2019\COMMUNITY\VC\TOOLS\MSVC\14.21.27702\INCLUDE\XHASH
C:\PROGRAM FILES (X86)\MICROSOFT VISUAL STUDIO\2019\COMMUNITY\VC\TOOLS\MSVC\14.21.27702\INCLUDE\XBIT_OPS.H
C:\PROGRAM FILES (X86)\MICROSOFT VISUAL STUDIO\2019\COMMUNITY\VC\TOOLS\MSVC\14.21.27702\INCLUDE\UNORDERED_SET
C:\PROGRAM FILES (X86)\MICROSOFT VISUAL STUDIO\2019\COMMUNITY\VC\TOOLS\MSVC\14.21.27702\INCLUDE\FUNCTIONAL
C:\PROGRAM FILES (X86)\MICROSOFT VISUAL STUDIO\2019\COMMUNITY\VC\TOOLS\MSVC\14.21.27702\INCLUDE\TYPEINFO
C:\PROGRAM FILES (X86)\MICROSOFT VISUAL STUDIO\2019\COMMUNITY\VC\TOOLS\MSVC\14.21.27702\INCLUDE\VCRUNTIME_TYPEINFO.H
C:\PROGRAM FILES (X86)\MICROSOFT VISUAL STUDIO\2019\COMMUNITY\VC\TOOLS\MSVC\14.21.27702\INCLUDE\FSTREAM
C:\PROGRAM FILES (X86)\MICROSOFT VISUAL STUDIO\2019\COMMUNITY\VC\TOOLS\MSVC\14.21.27702\INCLUDE\ISTREAM
C:\PROGRAM FILES (X86)\MICROSOFT VISUAL STUDIO\2019\COMMUNITY\VC\TOOLS\MSVC\14.21.27702\INCLUDE\OSTREAM
C:\PROGRAM FILES (X86)\MICROSOFT VISUAL STUDIO\2019\COMMUNITY\VC\TOOLS\MSVC\14.21.27702\INCLUDE\IOS
C:\PROGRAM FILES (X86)\MICROSOFT VISUAL STUDIO\2019\COMMUNITY\VC\TOOLS\MSVC\14.21.27702\INCLUDE\XLOCNUM
C:\PROGRAM FILES (X86)\MICROSOFT VISUAL STUDIO\2019\COMMUNITY\VC\TOOLS\MSVC\14.21.27702\INCLUDE\STREAMBUF
C:\PROGRAM FILES (X86)\MICROSOFT VISUAL STUDIO\2019\COMMUNITY\VC\TOOLS\MSVC\14.21.27702\INCLUDE\XIOSBASE
C:\PROGRAM FILES (X86)\WINDOWS KITS\10\INCLUDE\10.0.17763.0\UCRT\SHARE.H
C:\PROGRAM FILES (X86)\MICROSOFT VISUAL STUDIO\2019\COMMUNITY\VC\TOOLS\MSVC\14.21.27702\INCLUDE\SYSTEM_ERROR
C:\PROGRAM FILES (X86)\MICROSOFT VISUAL STUDIO\2019\COMMUNITY\VC\TOOLS\MSVC\14.21.27702\INCLUDE\CERRNO
C:\PROGRAM FILES (X86)\MICROSOFT VISUAL STUDIO\2019\COMMUNITY\VC\TOOLS\MSVC\14.21.27702\INCLUDE\STDEXCEPT
C:\PROGRAM FILES (X86)\MICROSOFT VISUAL STUDIO\2019\COMMUNITY\VC\TOOLS\MSVC\14.21.27702\INCLUDE\XCALL_ONCE.H
C:\PROGRAM FILES (X86)\MICROSOFT VISUAL STUDIO\2019\COMMUNITY\VC\TOOLS\MSVC\14.21.27702\INCLUDE\XERRC.H
C:\PROGRAM FILES (X86)\MICROSOFT VISUAL STUDIO\2019\COMMUNITY\VC\TOOLS\MSVC\14.21.27702\INCLUDE\XLOCALE
C:\PROGRAM FILES (X86)\MICROSOFT VISUAL STUDIO\2019\COMMUNITY\VC\TOOLS\MSVC\14.21.27702\INCLUDE\MEMORY
C:\PROGRAM FILES (X86)\MICROSOFT VISUAL STUDIO\2019\COMMUNITY\VC\TOOLS\MSVC\14.21.27702\INCLUDE\XFACET
C:\PROGRAM FILES (X86)\MICROSOFT VISUAL STUDIO\2019\COMMUNITY\VC\TOOLS\MSVC\14.21.27702\INCLUDE\XLOCINFO
C:\PROGRAM FILES (X86)\MICROSOFT VISUAL STUDIO\2019\COMMUNITY\VC\TOOLS\MSVC\14.21.27702\INCLUDE\XLOCINFO.H
C:\PROGRAM FILES (X86)\WINDOWS KITS\10\INCLUDE\10.0.17763.0\UCRT\LOCALE.H
C:\PROGRAM FILES (X86)\MICROSOFT VISUAL STUDIO\2019\COMMUNITY\VC\TOOLS\MSVC\14.21.27702\INCLUDE\IOSTREAM
C:\PROGRAM FILES (X86)\MICROSOFT VISUAL STUDIO\2019\COMMUNITY\VC\TOOLS\MSVC\14.21.27702\INCLUDE\IOMANIP
C:\PROGRAM FILES (X86)\MICROSOFT VISUAL STUDIO\2019\COMMUNITY\VC\TOOLS\MSVC\14.21.27702\INCLUDE\XLOCMON
C:\PROGRAM FILES (X86)\MICROSOFT VISUAL STUDIO\2019\COMMUNITY\VC\TOOLS\MSVC\14.21.27702\INCLUDE\XLOCTIME
C:\PROGRAM FILES (X86)\MICROSOFT VISUAL STUDIO\2019\COMMUNITY\VC\TOOLS\MSVC\14.21.27702\INCLUDE\SSTREAM
C:\OGRESDK_1_9\INCLUDE\OGRE\OGREMEMORYALLOCATORCONFIG.H
C:\OGRESDK_1_9\INCLUDE\OGRE\OGREMEMORYALLOCATEDOBJECT.H
C:\OGRESDK_1_9\INCLUDE\OGRE\OGREHEADERPREFIX.H
C:\OGRESDK_1_9\INCLUDE\OGRE\OGREHEADERSUFFIX.H
C:\OGRESDK_1_9\INCLUDE\OGRE\OGREMEMORYSTLALLOCATOR.H
C:\OGRESDK_1_9\INCLUDE\OGRE\OGREMEMORYNEDPOOLING.H
C:\OGRESDK_1_9\INCLUDE\OGRE\OGRESTRING.H
C:\OGRESDK_1_9\INCLUDE\OGRE\OGREMOVABLEOBJECT.H
C:\OGRESDK_1_9\INCLUDE\OGRE\OGRERENDERQUEUE.H
C:\OGRESDK_1_9\INCLUDE\OGRE\OGREITERATORWRAPPERS.H
C:\OGRESDK_1_9\INCLUDE\OGRE\OGREITERATORWRAPPER.H
C:\OGRESDK_1_9\INCLUDE\OGRE\OGREITERATORRANGE.H
C:\OGRESDK_1_9\INCLUDE\OGRE\OGREAXISALIGNEDBOX.H
C:\OGRESDK_1_9\INCLUDE\OGRE\OGREVECTOR3.H
C:\OGRESDK_1_9\INCLUDE\OGRE\OGREMATH.H
C:\OGRESDK_1_9\INCLUDE\OGRE\OGREQUATERNION.H
C:\OGRESDK_1_9\INCLUDE\OGRE\OGREMATRIX4.H
C:\OGRESDK_1_9\INCLUDE\OGRE\OGREMATRIX3.H
C:\OGRESDK_1_9\INCLUDE\OGRE\OGREVECTOR4.H
C:\OGRESDK_1_9\INCLUDE\OGRE\OGREPLANE.H
C:\OGRESDK_1_9\INCLUDE\OGRE\OGRESPHERE.H
C:\OGRESDK_1_9\INCLUDE\OGRE\OGRESHADOWCASTER.H
C:\OGRESDK_1_9\INCLUDE\OGRE\OGRERENDERABLE.H
C:\OGRESDK_1_9\INCLUDE\OGRE\OGRECOMMON.H
C:\OGRESDK_1_9\INCLUDE\OGRE\OGRERENDEROPERATION.H
C:\OGRESDK_1_9\INCLUDE\OGRE\OGREVERTEXINDEXDATA.H
C:\OGRESDK_1_9\INCLUDE\OGRE\OGREHARDWAREVERTEXBUFFER.H
C:\OGRESDK_1_9\INCLUDE\OGRE\OGREHARDWAREBUFFER.H
C:\OGRESDK_1_9\INCLUDE\OGRE\OGREEXCEPTION.H
C:\OGRESDK_1_9\INCLUDE\OGRE\OGRESHAREDPTR.H
C:\OGRESDK_1_9\INCLUDE\OGRE\OGREATOMICSCALAR.H
C:\PROGRAM FILES (X86)\WINDOWS KITS\10\INCLUDE\10.0.17763.0\UCRT\SIGNAL.H
C:\OGRESDK_1_9\INCLUDE\OGRE\OGREPLATFORMINFORMATION.H
C:\OGRESDK_1_9\INCLUDE\OGRE\THREADING\OGRETHREADHEADERS.H
C:\OGRESDK_1_9\INCLUDE\OGRE\THREADING\OGRETHREADDEFINES.H
C:\OGRESDK_1_9\INCLUDE\OGRE\THREADING\OGRETHREADDEFINESNONE.H
C:\OGRESDK_1_9\INCLUDE\OGRE\OGRECOLOURVALUE.H
C:\OGRESDK_1_9\INCLUDE\OGRE\OGREHARDWAREINDEXBUFFER.H
C:\OGRESDK_1_9\INCLUDE\OGRE\OGREMATERIAL.H
C:\OGRESDK_1_9\INCLUDE\OGRE\OGRERESOURCE.H
C:\OGRESDK_1_9\INCLUDE\OGRE\OGRESTRINGINTERFACE.H
C:\OGRESDK_1_9\INCLUDE\OGRE\OGREBLENDMODE.H
C:\OGRESDK_1_9\INCLUDE\OGRE\OGREGPUPROGRAM.H
C:\OGRESDK_1_9\INCLUDE\OGRE\OGRESERIALIZER.H
C:\OGRESDK_1_9\INCLUDE\OGRE\OGREDATASTREAM.H
C:\OGRESDK_1_9\INCLUDE\OGRE\OGREGPUPROGRAMPARAMS.H
C:\OGRESDK_1_9\INCLUDE\OGRE\OGREANY.H
C:\OGRESDK_1_9\INCLUDE\OGRE\OGREUSEROBJECTBINDINGS.H
C:\OGRESDK_1_9\INCLUDE\OGRE\OGREFACTORYOBJ.H
C:\OGRESDK_1_9\INCLUDE\OGRE\OGREANIMABLE.H
C:\OGRESDK_1_9\INCLUDE\OGRE\OGREVECTOR2.H
C:\OGRESDK_1_9\INCLUDE\OGRE\OGRESTRINGVECTOR.H
C:\OGRESDK_1_9\INCLUDE\OGRE\OGREFRUSTUM.H
C:\OGRESDK_1_9\INCLUDE\OGRE\OGREMOVABLEPLANE.H
C:\OGRESDK_1_9\INCLUDE\OGRE\OGRERAY.H
C:\OGRESDK_1_9\INCLUDE\OGRE\OGREPLANEBOUNDEDVOLUME.H
C:\OGRESDK_1_9\INCLUDE\OGRE\OGREENTITY.H
C:\OGRESDK_1_9\INCLUDE\OGRE\OGREHARDWAREBUFFERMANAGER.H
C:\OGRESDK_1_9\INCLUDE\OGRE\OGRESINGLETON.H
C:\OGRESDK_1_9\INCLUDE\OGRE\OGREHARDWARECOUNTERBUFFER.H
C:\OGRESDK_1_9\INCLUDE\OGRE\OGREHARDWAREUNIFORMBUFFER.H
C:\OGRESDK_1_9\INCLUDE\OGRE\OGRERENDERTOVERTEXBUFFER.H
C:\OGRESDK_1_9\INCLUDE\OGRE\OGREMESH.H
C:\OGRESDK_1_9\INCLUDE\OGRE\OGREVERTEXBONEASSIGNMENT.H
C:\OGRESDK_1_9\INCLUDE\OGRE\OGRESKELETON.H
C:\OGRESDK_1_9\INCLUDE\OGRE\OGREANIMATION.H
C:\OGRESDK_1_9\INCLUDE\OGRE\OGREANIMATIONTRACK.H
C:\OGRESDK_1_9\INCLUDE\OGRE\OGRESIMPLESPLINE.H
C:\OGRESDK_1_9\INCLUDE\OGRE\OGREROTATIONALSPLINE.H
C:\OGRESDK_1_9\INCLUDE\OGRE\OGREKEYFRAME.H
C:\OGRESDK_1_9\INCLUDE\OGRE\OGREPOSE.H
C:\OGRESDK_1_9\INCLUDE\OGRE\OGREANIMATIONSTATE.H
C:\OGRESDK_1_9\INCLUDE\OGRE\OGRECONTROLLER.H
C:\OGRESDK_1_9\INCLUDE\OGRE\OGRERESOURCEGROUPMANAGER.H
C:\OGRESDK_1_9\INCLUDE\OGRE\OGREARCHIVE.H
C:\OGRESDK_1_9\INCLUDE\OGRE\OGRELOGMANAGER.H
C:\OGRESDK_1_9\INCLUDE\OGRE\OGRELOG.H
C:\OGRESDK_1_9\INCLUDE\OGRE\OGREROOT.H
C:\OGRESDK_1_9\INCLUDE\OGRE\OGRESCENEMANAGERENUMERATOR.H
C:\OGRESDK_1_9\INCLUDE\OGRE\OGRESCENEMANAGER.H
C:\OGRESDK_1_9\INCLUDE\OGRE\OGRESCENENODE.H
C:\OGRESDK_1_9\INCLUDE\OGRE\OGRENODE.H
C:\OGRESDK_1_9\INCLUDE\OGRE\OGRESCENEQUERY.H
C:\OGRESDK_1_9\INCLUDE\OGRE\OGREAUTOPARAMDATASOURCE.H
C:\OGRESDK_1_9\INCLUDE\OGRE\OGRELIGHT.H
C:\OGRESDK_1_9\INCLUDE\OGRE\OGRESHADOWCAMERASETUP.H
C:\OGRESDK_1_9\INCLUDE\OGRE\OGRERENDERQUEUESORTINGGROUPING.H
C:\OGRESDK_1_9\INCLUDE\OGRE\OGRETECHNIQUE.H
C:\OGRESDK_1_9\INCLUDE\OGRE\OGREPASS.H
C:\OGRESDK_1_9\INCLUDE\OGRE\OGRETEXTUREUNITSTATE.H
C:\OGRESDK_1_9\INCLUDE\OGRE\OGRETEXTURE.H
C:\OGRESDK_1_9\INCLUDE\OGRE\OGREIMAGE.H
C:\OGRESDK_1_9\INCLUDE\OGRE\OGREPIXELFORMAT.H
C:\OGRESDK_1_9\INCLUDE\OGRE\OGRERENDERSYSTEMCAPABILITIES.H
C:\OGRESDK_1_9\INCLUDE\OGRE\OGRESTRINGCONVERTER.H
C:\OGRESDK_1_9\INCLUDE\OGRE\OGRERADIXSORT.H
C:\OGRESDK_1_9\INCLUDE\OGRE\OGRERECTANGLE2D.H
C:\OGRESDK_1_9\INCLUDE\OGRE\OGRESIMPLERENDERABLE.H
C:\OGRESDK_1_9\INCLUDE\OGRE\OGRESHADOWTEXTUREMANAGER.H
C:\OGRESDK_1_9\INCLUDE\OGRE\OGREINSTANCEDGEOMETRY.H
C:\OGRESDK_1_9\INCLUDE\OGRE\OGRESKELETONINSTANCE.H
C:\OGRESDK_1_9\INCLUDE\OGRE\OGREBONE.H
C:\OGRESDK_1_9\INCLUDE\OGRE\OGRELODLISTENER.H
C:\OGRESDK_1_9\INCLUDE\OGRE\OGREINSTANCEMANAGER.H
C:\OGRESDK_1_9\INCLUDE\OGRE\OGRERENDERSYSTEM.H
C:\OGRESDK_1_9\INCLUDE\OGRE\OGREMATERIALMANAGER.H
C:\OGRESDK_1_9\INCLUDE\OGRE\OGRERESOURCEMANAGER.H
C:\OGRESDK_1_9\INCLUDE\OGRE\OGRESCRIPTLOADER.H
C:\OGRESDK_1_9\INCLUDE\OGRE\OGREMATERIALSERIALIZER.H
C:\OGRESDK_1_9\INCLUDE\OGRE\OGRERENDERTARGET.H
C:\OGRESDK_1_9\INCLUDE\OGRE\OGRETEXTUREMANAGER.H
C:\OGRESDK_1_9\INCLUDE\OGRE\OGREVIEWPORT.H
C:\OGRESDK_1_9\INCLUDE\OGRE\OGRETIMER.H
C:\OGRESDK_1_9\INCLUDE\OGRE\WIN32\OGRETIMERIMP.H
C:\PROGRAM FILES (X86)\WINDOWS KITS\10\INCLUDE\10.0.17763.0\UM\WINDOWS.H
C:\PROGRAM FILES (X86)\WINDOWS KITS\10\INCLUDE\10.0.17763.0\SHARED\WINAPIFAMILY.H
C:\PROGRAM FILES (X86)\WINDOWS KITS\10\INCLUDE\10.0.17763.0\SHARED\WINPACKAGEFAMILY.H
C:\PROGRAM FILES (X86)\WINDOWS KITS\10\INCLUDE\10.0.17763.0\SHARED\SDKDDKVER.H
C:\PROGRAM FILES (X86)\MICROSOFT VISUAL STUDIO\2019\COMMUNITY\VC\TOOLS\MSVC\14.21.27702\INCLUDE\EXCPT.H
C:\PROGRAM FILES (X86)\WINDOWS KITS\10\INCLUDE\10.0.17763.0\SHARED\WINDEF.H
C:\PROGRAM FILES (X86)\WINDOWS KITS\10\INCLUDE\10.0.17763.0\SHARED\MINWINDEF.H
C:\PROGRAM FILES (X86)\WINDOWS KITS\10\INCLUDE\10.0.17763.0\SHARED\SPECSTRINGS.H
C:\PROGRAM FILES (X86)\WINDOWS KITS\10\INCLUDE\10.0.17763.0\SHARED\SPECSTRINGS_STRICT.H
C:\PROGRAM FILES (X86)\WINDOWS KITS\10\INCLUDE\10.0.17763.0\SHARED\SPECSTRINGS_UNDEF.H
C:\PROGRAM FILES (X86)\WINDOWS KITS\10\INCLUDE\10.0.17763.0\SHARED\DRIVERSPECS.H
C:\PROGRAM FILES (X86)\WINDOWS KITS\10\INCLUDE\10.0.17763.0\SHARED\SDV_DRIVERSPECS.H
C:\PROGRAM FILES (X86)\WINDOWS KITS\10\INCLUDE\10.0.17763.0\UM\WINNT.H
C:\PROGRAM FILES (X86)\WINDOWS KITS\10\INCLUDE\10.0.17763.0\SHARED\KERNELSPECS.H
C:\PROGRAM FILES (X86)\WINDOWS KITS\10\INCLUDE\10.0.17763.0\SHARED\BASETSD.H
C:\PROGRAM FILES (X86)\WINDOWS KITS\10\INCLUDE\10.0.17763.0\SHARED\GUIDDEF.H
C:\PROGRAM FILES (X86)\WINDOWS KITS\10\INCLUDE\10.0.17763.0\SHARED\PSHPACK4.H
C:\PROGRAM FILES (X86)\WINDOWS KITS\10\INCLUDE\10.0.17763.0\SHARED\POPPACK.H
C:\PROGRAM FILES (X86)\WINDOWS KITS\10\INCLUDE\10.0.17763.0\SHARED\PSHPACK2.H
C:\PROGRAM FILES (X86)\WINDOWS KITS\10\INCLUDE\10.0.17763.0\SHARED\PSHPACK8.H
C:\PROGRAM FILES (X86)\WINDOWS KITS\10\INCLUDE\10.0.17763.0\SHARED\PSHPACK1.H
C:\PROGRAM FILES (X86)\WINDOWS KITS\10\INCLUDE\10.0.17763.0\SHARED\APISET.H
C:\PROGRAM FILES (X86)\WINDOWS KITS\10\INCLUDE\10.0.17763.0\SHARED\KTMTYPES.H
C:\PROGRAM FILES (X86)\WINDOWS KITS\10\INCLUDE\10.0.17763.0\UM\WINBASE.H
C:\PROGRAM FILES (X86)\WINDOWS KITS\10\INCLUDE\10.0.17763.0\SHARED\APISETCCONV.H
C:\PROGRAM FILES (X86)\WINDOWS KITS\10\INCLUDE\10.0.17763.0\UM\MINWINBASE.H
C:\PROGRAM FILES (X86)\WINDOWS KITS\10\INCLUDE\10.0.17763.0\UM\APIQUERY2.H
C:\PROGRAM FILES (X86)\WINDOWS KITS\10\INCLUDE\10.0.17763.0\UM\PROCESSENV.H
C:\PROGRAM FILES (X86)\WINDOWS KITS\10\INCLUDE\10.0.17763.0\UM\FILEAPI.H
C:\PROGRAM FILES (X86)\WINDOWS KITS\10\INCLUDE\10.0.17763.0\UM\DEBUGAPI.H
C:\PROGRAM FILES (X86)\WINDOWS KITS\10\INCLUDE\10.0.17763.0\UM\UTILAPISET.H
C:\PROGRAM FILES (X86)\WINDOWS KITS\10\INCLUDE\10.0.17763.0\UM\HANDLEAPI.H
C:\PROGRAM FILES (X86)\WINDOWS KITS\10\INCLUDE\10.0.17763.0\UM\ERRHANDLINGAPI.H
C:\PROGRAM FILES (X86)\WINDOWS KITS\10\INCLUDE\10.0.17763.0\UM\FIBERSAPI.H
C:\PROGRAM FILES (X86)\WINDOWS KITS\10\INCLUDE\10.0.17763.0\UM\NAMEDPIPEAPI.H
C:\PROGRAM FILES (X86)\WINDOWS KITS\10\INCLUDE\10.0.17763.0\UM\PROFILEAPI.H
C:\PROGRAM FILES (X86)\WINDOWS KITS\10\INCLUDE\10.0.17763.0\UM\HEAPAPI.H
C:\PROGRAM FILES (X86)\WINDOWS KITS\10\INCLUDE\10.0.17763.0\UM\IOAPISET.H
C:\PROGRAM FILES (X86)\WINDOWS KITS\10\INCLUDE\10.0.17763.0\UM\SYNCHAPI.H
C:\PROGRAM FILES (X86)\WINDOWS KITS\10\INCLUDE\10.0.17763.0\UM\INTERLOCKEDAPI.H
C:\PROGRAM FILES (X86)\WINDOWS KITS\10\INCLUDE\10.0.17763.0\UM\PROCESSTHREADSAPI.H
C:\PROGRAM FILES (X86)\WINDOWS KITS\10\INCLUDE\10.0.17763.0\UM\SYSINFOAPI.H
C:\PROGRAM FILES (X86)\WINDOWS KITS\10\INCLUDE\10.0.17763.0\UM\MEMORYAPI.H
C:\PROGRAM FILES (X86)\WINDOWS KITS\10\INCLUDE\10.0.17763.0\UM\ENCLAVEAPI.H
C:\PROGRAM FILES (X86)\WINDOWS KITS\10\INCLUDE\10.0.17763.0\UM\THREADPOOLLEGACYAPISET.H
C:\PROGRAM FILES (X86)\WINDOWS KITS\10\INCLUDE\10.0.17763.0\UM\THREADPOOLAPISET.H
C:\PROGRAM FILES (X86)\WINDOWS KITS\10\INCLUDE\10.0.17763.0\UM\JOBAPI.H
C:\PROGRAM FILES (X86)\WINDOWS KITS\10\INCLUDE\10.0.17763.0\UM\JOBAPI2.H
C:\PROGRAM FILES (X86)\WINDOWS KITS\10\INCLUDE\10.0.17763.0\UM\WOW64APISET.H
C:\PROGRAM FILES (X86)\WINDOWS KITS\10\INCLUDE\10.0.17763.0\UM\LIBLOADERAPI.H
C:\PROGRAM FILES (X86)\WINDOWS KITS\10\INCLUDE\10.0.17763.0\UM\SECURITYBASEAPI.H
C:\PROGRAM FILES (X86)\WINDOWS KITS\10\INCLUDE\10.0.17763.0\UM\NAMESPACEAPI.H
C:\PROGRAM FILES (X86)\WINDOWS KITS\10\INCLUDE\10.0.17763.0\UM\SYSTEMTOPOLOGYAPI.H
C:\PROGRAM FILES (X86)\WINDOWS KITS\10\INCLUDE\10.0.17763.0\UM\PROCESSTOPOLOGYAPI.H
C:\PROGRAM FILES (X86)\WINDOWS KITS\10\INCLUDE\10.0.17763.0\UM\SECURITYAPPCONTAINER.H
C:\PROGRAM FILES (X86)\WINDOWS KITS\10\INCLUDE\10.0.17763.0\UM\REALTIMEAPISET.H
C:\PROGRAM FILES (X86)\WINDOWS KITS\10\INCLUDE\10.0.17763.0\SHARED\WINERROR.H
C:\PROGRAM FILES (X86)\WINDOWS KITS\10\INCLUDE\10.0.17763.0\UM\TIMEZONEAPI.H
C:\PROGRAM FILES (X86)\WINDOWS KITS\10\INCLUDE\10.0.17763.0\UM\WINGDI.H
C:\PROGRAM FILES (X86)\WINDOWS KITS\10\INCLUDE\10.0.17763.0\UM\WINUSER.H
C:\PROGRAM FILES (X86)\WINDOWS KITS\10\INCLUDE\10.0.17763.0\SHARED\TVOUT.H
C:\PROGRAM FILES (X86)\WINDOWS KITS\10\INCLUDE\10.0.17763.0\UM\WINNLS.H
C:\PROGRAM FILES (X86)\WINDOWS KITS\10\INCLUDE\10.0.17763.0\UM\DATETIMEAPI.H
C:\PROGRAM FILES (X86)\WINDOWS KITS\10\INCLUDE\10.0.17763.0\UM\STRINGAPISET.H
C:\PROGRAM FILES (X86)\WINDOWS KITS\10\INCLUDE\10.0.17763.0\UM\WINCON.H
C:\PROGRAM FILES (X86)\WINDOWS KITS\10\INCLUDE\10.0.17763.0\UM\WINCONTYPES.H
C:\PROGRAM FILES (X86)\WINDOWS KITS\10\INCLUDE\10.0.17763.0\UM\CONSOLEAPI.H
C:\PROGRAM FILES (X86)\WINDOWS KITS\10\INCLUDE\10.0.17763.0\UM\CONSOLEAPI2.H
C:\PROGRAM FILES (X86)\WINDOWS KITS\10\INCLUDE\10.0.17763.0\UM\CONSOLEAPI3.H
C:\PROGRAM FILES (X86)\WINDOWS KITS\10\INCLUDE\10.0.17763.0\UM\WINVER.H
C:\PROGRAM FILES (X86)\WINDOWS KITS\10\INCLUDE\10.0.17763.0\UM\VERRSRC.H
C:\PROGRAM FILES (X86)\WINDOWS KITS\10\INCLUDE\10.0.17763.0\UM\WINREG.H
C:\PROGRAM FILES (X86)\WINDOWS KITS\10\INCLUDE\10.0.17763.0\UM\REASON.H
C:\PROGRAM FILES (X86)\WINDOWS KITS\10\INCLUDE\10.0.17763.0\UM\WINNETWK.H
C:\PROGRAM FILES (X86)\WINDOWS KITS\10\INCLUDE\10.0.17763.0\SHARED\WNNC.H
C:\PROGRAM FILES (X86)\WINDOWS KITS\10\INCLUDE\10.0.17763.0\SHARED\STRALIGN.H
C:\PROGRAM FILES (X86)\WINDOWS KITS\10\INCLUDE\10.0.17763.0\UM\WINSVC.H
C:\PROGRAM FILES (X86)\WINDOWS KITS\10\INCLUDE\10.0.17763.0\UM\MCX.H
C:\PROGRAM FILES (X86)\WINDOWS KITS\10\INCLUDE\10.0.17763.0\UM\IMM.H
C:\PROGRAM FILES (X86)\WINDOWS KITS\10\INCLUDE\10.0.17763.0\UM\IME_CMODES.H
C:\OGRESDK_1_9\INCLUDE\OGRE\OGRERENDERTEXTURE.H
C:\OGRESDK_1_9\INCLUDE\OGRE\OGREFRAMELISTENER.H
C:\OGRESDK_1_9\INCLUDE\OGRE\OGRECONFIGOPTIONMAP.H
C:\OGRESDK_1_9\INCLUDE\OGRE\OGRENAMEGENERATOR.H
C:\OGRESDK_1_9\INCLUDE\OGRE\OGRELODSTRATEGYMANAGER.H
C:\OGRESDK_1_9\INCLUDE\OGRE\OGRELODSTRATEGY.H
C:\OGRESDK_1_9\INCLUDE\OGRE\OGREWORKQUEUE.H
C:\OGRESDK_1_9\INCLUDE\OGRE\OGRERENDERWINDOW.H
C:\OGRESDK_1_9\INCLUDE\OGRE\OGRECONFIGFILE.H
C:\OGRESDK_1_9\INCLUDE\OGRE\OGREMANUALOBJECT.H
^C:\USERS\JUSTIN\SOURCE\REPOS\OGRE3D BASE PROJECT\1 - SETUP BASICS\TUTORIALAPPLICATION.CPP
C:\USERS\JUSTIN\SOURCE\REPOS\OGRE3D BASE PROJECT\1 - SETUP BASICS\TUTORIALAPPLICATION.H
C:\USERS\JUSTIN\SOURCE\REPOS\OGRE3D BASE PROJECT\1 - SETUP BASICS\BASEAPPLICATION.H
C:\OGRESDK_1_9\INCLUDE\OGRE\OGRECAMERA.H
C:\OGRESDK_1_9\INCLUDE\OGRE\OGREPREREQUISITES.H
C:\OGRESDK_1_9\INCLUDE\OGRE\OGREPLATFORM.H
C:\OGRESDK_1_9\INCLUDE\OGRE\OGRECONFIG.H
C:\OGRESDK_1_9\INCLUDE\OGRE\OGREBUILDSETTINGS.H
C:\PROGRAM FILES (X86)\MICROSOFT VISUAL STUDIO\2019\COMMUNITY\VC\TOOLS\MSVC\14.21.27702\INCLUDE\STRING
C:\PROGRAM FILES (X86)\MICROSOFT VISUAL STUDIO\2019\COMMUNITY\VC\TOOLS\MSVC\14.21.27702\INCLUDE\XSTRING
C:\PROGRAM FILES (X86)\MICROSOFT VISUAL STUDIO\2019\COMMUNITY\VC\TOOLS\MSVC\14.21.27702\INCLUDE\IOSFWD
C:\PROGRAM FILES (X86)\MICROSOFT VISUAL STUDIO\2019\COMMUNITY\VC\TOOLS\MSVC\14.21.27702\INCLUDE\YVALS.H
C:\PROGRAM FILES (X86)\MICROSOFT VISUAL STUDIO\2019\COMMUNITY\VC\TOOLS\MSVC\14.21.27702\INCLUDE\YVALS_CORE.H
C:\PROGRAM FILES (X86)\MICROSOFT VISUAL STUDIO\2019\COMMUNITY\VC\TOOLS\MSVC\14.21.27702\INCLUDE\CRTDEFS.H
C:\PROGRAM FILES (X86)\MICROSOFT VISUAL STUDIO\2019\COMMUNITY\VC\TOOLS\MSVC\14.21.27702\INCLUDE\VCRUNTIME.H
C:\PROGRAM FILES (X86)\MICROSOFT VISUAL STUDIO\2019\COMMUNITY\VC\TOOLS\MSVC\14.21.27702\INCLUDE\SAL.H
C:\PROGRAM FILES (X86)\MICROSOFT VISUAL STUDIO\2019\COMMUNITY\VC\TOOLS\MSVC\14.21.27702\INCLUDE\CONCURRENCYSAL.H
C:\PROGRAM FILES (X86)\MICROSOFT VISUAL STUDIO\2019\COMMUNITY\VC\TOOLS\MSVC\14.21.27702\INCLUDE\VADEFS.H
C:\PROGRAM FILES (X86)\WINDOWS KITS\10\INCLUDE\10.0.17763.0\UCRT\CORECRT.H
C:\PROGRAM FILES (X86)\MICROSOFT VISUAL STUDIO\2019\COMMUNITY\VC\TOOLS\MSVC\14.21.27702\INCLUDE\XKEYCHECK.H
C:\PROGRAM FILES (X86)\WINDOWS KITS\10\INCLUDE\10.0.17763.0\UCRT\CRTDBG.H
C:\PROGRAM FILES (X86)\MICROSOFT VISUAL STUDIO\2019\COMMUNITY\VC\TOOLS\MSVC\14.21.27702\INCLUDE\VCRUNTIME_NEW_DEBUG.H
C:\PROGRAM FILES (X86)\MICROSOFT VISUAL STUDIO\2019\COMMUNITY\VC\TOOLS\MSVC\14.21.27702\INCLUDE\VCRUNTIME_NEW.H
C:\PROGRAM FILES (X86)\MICROSOFT VISUAL STUDIO\2019\COMMUNITY\VC\TOOLS\MSVC\14.21.27702\INCLUDE\USE_ANSI.H
C:\PROGRAM FILES (X86)\MICROSOFT VISUAL STUDIO\2019\COMMUNITY\VC\TOOLS\MSVC\14.21.27702\INCLUDE\CSTDIO
C:\PROGRAM FILES (X86)\WINDOWS KITS\10\INCLUDE\10.0.17763.0\UCRT\STDIO.H
C:\PROGRAM FILES (X86)\WINDOWS KITS\10\INCLUDE\10.0.17763.0\UCRT\CORECRT_WSTDIO.H
C:\PROGRAM FILES (X86)\WINDOWS KITS\10\INCLUDE\10.0.17763.0\UCRT\CORECRT_STDIO_CONFIG.H
C:\PROGRAM FILES (X86)\MICROSOFT VISUAL STUDIO\2019\COMMUNITY\VC\TOOLS\MSVC\14.21.27702\INCLUDE\CSTRING
C:\PROGRAM FILES (X86)\WINDOWS KITS\10\INCLUDE\10.0.17763.0\UCRT\STRING.H
C:\PROGRAM FILES (X86)\WINDOWS KITS\10\INCLUDE\10.0.17763.0\UCRT\CORECRT_MEMORY.H
C:\PROGRAM FILES (X86)\WINDOWS KITS\10\INCLUDE\10.0.17763.0\UCRT\CORECRT_MEMCPY_S.H
C:\PROGRAM FILES (X86)\WINDOWS KITS\10\INCLUDE\10.0.17763.0\UCRT\ERRNO.H
C:\PROGRAM FILES (X86)\MICROSOFT VISUAL STUDIO\2019\COMMUNITY\VC\TOOLS\MSVC\14.21.27702\INCLUDE\VCRUNTIME_STRING.H
C:\PROGRAM FILES (X86)\WINDOWS KITS\10\INCLUDE\10.0.17763.0\UCRT\CORECRT_WSTRING.H
C:\PROGRAM FILES (X86)\MICROSOFT VISUAL STUDIO\2019\COMMUNITY\VC\TOOLS\MSVC\14.21.27702\INCLUDE\CWCHAR
C:\PROGRAM FILES (X86)\WINDOWS KITS\10\INCLUDE\10.0.17763.0\UCRT\WCHAR.H
C:\PROGRAM FILES (X86)\WINDOWS KITS\10\INCLUDE\10.0.17763.0\UCRT\CORECRT_WCONIO.H
C:\PROGRAM FILES (X86)\WINDOWS KITS\10\INCLUDE\10.0.17763.0\UCRT\CORECRT_WCTYPE.H
C:\PROGRAM FILES (X86)\WINDOWS KITS\10\INCLUDE\10.0.17763.0\UCRT\CORECRT_WDIRECT.H
C:\PROGRAM FILES (X86)\WINDOWS KITS\10\INCLUDE\10.0.17763.0\UCRT\CORECRT_WIO.H
C:\PROGRAM FILES (X86)\WINDOWS KITS\10\INCLUDE\10.0.17763.0\UCRT\CORECRT_SHARE.H
C:\PROGRAM FILES (X86)\WINDOWS KITS\10\INCLUDE\10.0.17763.0\UCRT\CORECRT_WPROCESS.H
C:\PROGRAM FILES (X86)\WINDOWS KITS\10\INCLUDE\10.0.17763.0\UCRT\CORECRT_WSTDLIB.H
C:\PROGRAM FILES (X86)\WINDOWS KITS\10\INCLUDE\10.0.17763.0\UCRT\CORECRT_WTIME.H
C:\PROGRAM FILES (X86)\WINDOWS KITS\10\INCLUDE\10.0.17763.0\UCRT\SYS\STAT.H
C:\PROGRAM FILES (X86)\WINDOWS KITS\10\INCLUDE\10.0.17763.0\UCRT\SYS\TYPES.H
C:\PROGRAM FILES (X86)\MICROSOFT VISUAL STUDIO\2019\COMMUNITY\VC\TOOLS\MSVC\14.21.27702\INCLUDE\XSTDDEF
C:\PROGRAM FILES (X86)\MICROSOFT VISUAL STUDIO\2019\COMMUNITY\VC\TOOLS\MSVC\14.21.27702\INCLUDE\CSTDDEF
C:\PROGRAM FILES (X86)\WINDOWS KITS\10\INCLUDE\10.0.17763.0\UCRT\STDDEF.H
C:\PROGRAM FILES (X86)\MICROSOFT VISUAL STUDIO\2019\COMMUNITY\VC\TOOLS\MSVC\14.21.27702\INCLUDE\XTR1COMMON
C:\PROGRAM FILES (X86)\MICROSOFT VISUAL STUDIO\2019\COMMUNITY\VC\TOOLS\MSVC\14.21.27702\INCLUDE\CSTDLIB
C:\PROGRAM FILES (X86)\WINDOWS KITS\10\INCLUDE\10.0.17763.0\UCRT\MATH.H
C:\PROGRAM FILES (X86)\WINDOWS KITS\10\INCLUDE\10.0.17763.0\UCRT\CORECRT_MATH.H
C:\PROGRAM FILES (X86)\WINDOWS KITS\10\INCLUDE\10.0.17763.0\UCRT\STDLIB.H
C:\PROGRAM FILES (X86)\WINDOWS KITS\10\INCLUDE\10.0.17763.0\UCRT\CORECRT_MALLOC.H
C:\PROGRAM FILES (X86)\WINDOWS KITS\10\INCLUDE\10.0.17763.0\UCRT\CORECRT_SEARCH.H
C:\PROGRAM FILES (X86)\MICROSOFT VISUAL STUDIO\2019\COMMUNITY\VC\TOOLS\MSVC\14.21.27702\INCLUDE\LIMITS.H
C:\PROGRAM FILES (X86)\MICROSOFT VISUAL STUDIO\2019\COMMUNITY\VC\TOOLS\MSVC\14.21.27702\INCLUDE\INITIALIZER_LIST
C:\PROGRAM FILES (X86)\MICROSOFT VISUAL STUDIO\2019\COMMUNITY\VC\TOOLS\MSVC\14.21.27702\INCLUDE\XMEMORY0
C:\PROGRAM FILES (X86)\MICROSOFT VISUAL STUDIO\2019\COMMUNITY\VC\TOOLS\MSVC\14.21.27702\INCLUDE\CSTDINT
C:\PROGRAM FILES (X86)\MICROSOFT VISUAL STUDIO\2019\COMMUNITY\VC\TOOLS\MSVC\14.21.27702\INCLUDE\STDINT.H
C:\PROGRAM FILES (X86)\MICROSOFT VISUAL STUDIO\2019\COMMUNITY\VC\TOOLS\MSVC\14.21.27702\INCLUDE\LIMITS
C:\PROGRAM FILES (X86)\MICROSOFT VISUAL STUDIO\2019\COMMUNITY\VC\TOOLS\MSVC\14.21.27702\INCLUDE\CFLOAT
C:\PROGRAM FILES (X86)\WINDOWS KITS\10\INCLUDE\10.0.17763.0\UCRT\FLOAT.H
C:\PROGRAM FILES (X86)\MICROSOFT VISUAL STUDIO\2019\COMMUNITY\VC\TOOLS\MSVC\14.21.27702\INCLUDE\CLIMITS
C:\PROGRAM FILES (X86)\MICROSOFT VISUAL STUDIO\2019\COMMUNITY\VC\TOOLS\MSVC\14.21.27702\INCLUDE\NEW
C:\PROGRAM FILES (X86)\MICROSOFT VISUAL STUDIO\2019\COMMUNITY\VC\TOOLS\MSVC\14.21.27702\INCLUDE\EXCEPTION
C:\PROGRAM FILES (X86)\MICROSOFT VISUAL STUDIO\2019\COMMUNITY\VC\TOOLS\MSVC\14.21.27702\INCLUDE\TYPE_TRAITS
C:\PROGRAM FILES (X86)\WINDOWS KITS\10\INCLUDE\10.0.17763.0\UCRT\MALLOC.H
C:\PROGRAM FILES (X86)\MICROSOFT VISUAL STUDIO\2019\COMMUNITY\VC\TOOLS\MSVC\14.21.27702\INCLUDE\VCRUNTIME_EXCEPTION.H
C:\PROGRAM FILES (X86)\MICROSOFT VISUAL STUDIO\2019\COMMUNITY\VC\TOOLS\MSVC\14.21.27702\INCLUDE\EH.H
C:\PROGRAM FILES (X86)\WINDOWS KITS\10\INCLUDE\10.0.17763.0\UCRT\CORECRT_TERMINATE.H
C:\PROGRAM FILES (X86)\MICROSOFT VISUAL STUDIO\2019\COMMUNITY\VC\TOOLS\MSVC\14.21.27702\INCLUDE\XATOMIC.H
C:\PROGRAM FILES (X86)\MICROSOFT VISUAL STUDIO\2019\COMMUNITY\VC\TOOLS\MSVC\14.21.27702\INCLUDE\INTRIN0.H
C:\PROGRAM FILES (X86)\MICROSOFT VISUAL STUDIO\2019\COMMUNITY\VC\TOOLS\MSVC\14.21.27702\INCLUDE\XUTILITY
C:\PROGRAM FILES (X86)\MICROSOFT VISUAL STUDIO\2019\COMMUNITY\VC\TOOLS\MSVC\14.21.27702\INCLUDE\UTILITY
C:\PROGRAM FILES (X86)\MICROSOFT VISUAL STUDIO\2019\COMMUNITY\VC\TOOLS\MSVC\14.21.27702\INCLUDE\CCTYPE
C:\PROGRAM FILES (X86)\WINDOWS KITS\10\INCLUDE\10.0.17763.0\UCRT\CTYPE.H
C:\OGRESDK_1_9\INCLUDE\OGRE\OGRESTDHEADERS.H
C:\PROGRAM FILES (X86)\MICROSOFT VISUAL STUDIO\2019\COMMUNITY\VC\TOOLS\MSVC\14.21.27702\INCLUDE\CASSERT
C:\PROGRAM FILES (X86)\WINDOWS KITS\10\INCLUDE\10.0.17763.0\UCRT\ASSERT.H
C:\PROGRAM FILES (X86)\MICROSOFT VISUAL STUDIO\2019\COMMUNITY\VC\TOOLS\MSVC\14.21.27702\INCLUDE\CTIME
C:\PROGRAM FILES (X86)\WINDOWS KITS\10\INCLUDE\10.0.17763.0\UCRT\TIME.H
C:\PROGRAM FILES (X86)\MICROSOFT VISUAL STUDIO\2019\COMMUNITY\VC\TOOLS\MSVC\14.21.27702\INCLUDE\CSTDARG
C:\PROGRAM FILES (X86)\MICROSOFT VISUAL STUDIO\2019\COMMUNITY\VC\TOOLS\MSVC\14.21.27702\INCLUDE\STDARG.H
C:\PROGRAM FILES (X86)\MICROSOFT VISUAL STUDIO\2019\COMMUNITY\VC\TOOLS\MSVC\14.21.27702\INCLUDE\CMATH
C:\PROGRAM FILES (X86)\MICROSOFT VISUAL STUDIO\2019\COMMUNITY\VC\TOOLS\MSVC\14.21.27702\INCLUDE\XTGMATH.H
C:\PROGRAM FILES (X86)\MICROSOFT VISUAL STUDIO\2019\COMMUNITY\VC\TOOLS\MSVC\14.21.27702\INCLUDE\VECTOR
C:\PROGRAM FILES (X86)\MICROSOFT VISUAL STUDIO\2019\COMMUNITY\VC\TOOLS\MSVC\14.21.27702\INCLUDE\XMEMORY
C:\PROGRAM FILES (X86)\MICROSOFT VISUAL STUDIO\2019\COMMUNITY\VC\TOOLS\MSVC\14.21.27702\INCLUDE\MAP
C:\PROGRAM FILES (X86)\MICROSOFT VISUAL STUDIO\2019\COMMUNITY\VC\TOOLS\MSVC\14.21.27702\INCLUDE\TUPLE
C:\PROGRAM FILES (X86)\MICROSOFT VISUAL STUDIO\2019\COMMUNITY\VC\TOOLS\MSVC\14.21.27702\INCLUDE\XTREE
C:\PROGRAM FILES (X86)\MICROSOFT VISUAL STUDIO\2019\COMMUNITY\VC\TOOLS\MSVC\14.21.27702\INCLUDE\SET
C:\PROGRAM FILES (X86)\MICROSOFT VISUAL STUDIO\2019\COMMUNITY\VC\TOOLS\MSVC\14.21.27702\INCLUDE\LIST
C:\PROGRAM FILES (X86)\MICROSOFT VISUAL STUDIO\2019\COMMUNITY\VC\TOOLS\MSVC\14.21.27702\INCLUDE\DEQUE
C:\PROGRAM FILES (X86)\MICROSOFT VISUAL STUDIO\2019\COMMUNITY\VC\TOOLS\MSVC\14.21.27702\INCLUDE\QUEUE
C:\PROGRAM FILES (X86)\MICROSOFT VISUAL STUDIO\2019\COMMUNITY\VC\TOOLS\MSVC\14.21.27702\INCLUDE\ALGORITHM
C:\PROGRAM FILES (X86)\MICROSOFT VISUAL STUDIO\2019\COMMUNITY\VC\TOOLS\MSVC\14.21.27702\INCLUDE\BITSET
C:\PROGRAM FILES (X86)\MICROSOFT VISUAL STUDIO\2019\COMMUNITY\VC\TOOLS\MSVC\14.21.27702\INCLUDE\UNORDERED_MAP
C:\PROGRAM FILES (X86)\MICROSOFT VISUAL STUDIO\2019\COMMUNITY\VC\TOOLS\MSVC\14.21.27702\INCLUDE\XHASH
C:\PROGRAM FILES (X86)\MICROSOFT VISUAL STUDIO\2019\COMMUNITY\VC\TOOLS\MSVC\14.21.27702\INCLUDE\XBIT_OPS.H
C:\PROGRAM FILES (X86)\MICROSOFT VISUAL STUDIO\2019\COMMUNITY\VC\TOOLS\MSVC\14.21.27702\INCLUDE\UNORDERED_SET
C:\PROGRAM FILES (X86)\MICROSOFT VISUAL STUDIO\2019\COMMUNITY\VC\TOOLS\MSVC\14.21.27702\INCLUDE\FUNCTIONAL
C:\PROGRAM FILES (X86)\MICROSOFT VISUAL STUDIO\2019\COMMUNITY\VC\TOOLS\MSVC\14.21.27702\INCLUDE\TYPEINFO
C:\PROGRAM FILES (X86)\MICROSOFT VISUAL STUDIO\2019\COMMUNITY\VC\TOOLS\MSVC\14.21.27702\INCLUDE\VCRUNTIME_TYPEINFO.H
C:\PROGRAM FILES (X86)\MICROSOFT VISUAL STUDIO\2019\COMMUNITY\VC\TOOLS\MSVC\14.21.27702\INCLUDE\FSTREAM
C:\PROGRAM FILES (X86)\MICROSOFT VISUAL STUDIO\2019\COMMUNITY\VC\TOOLS\MSVC\14.21.27702\INCLUDE\ISTREAM
C:\PROGRAM FILES (X86)\MICROSOFT VISUAL STUDIO\2019\COMMUNITY\VC\TOOLS\MSVC\14.21.27702\INCLUDE\OSTREAM
C:\PROGRAM FILES (X86)\MICROSOFT VISUAL STUDIO\2019\COMMUNITY\VC\TOOLS\MSVC\14.21.27702\INCLUDE\IOS
C:\PROGRAM FILES (X86)\MICROSOFT VISUAL STUDIO\2019\COMMUNITY\VC\TOOLS\MSVC\14.21.27702\INCLUDE\XLOCNUM
C:\PROGRAM FILES (X86)\MICROSOFT VISUAL STUDIO\2019\COMMUNITY\VC\TOOLS\MSVC\14.21.27702\INCLUDE\STREAMBUF
C:\PROGRAM FILES (X86)\MICROSOFT VISUAL STUDIO\2019\COMMUNITY\VC\TOOLS\MSVC\14.21.27702\INCLUDE\XIOSBASE
C:\PROGRAM FILES (X86)\WINDOWS KITS\10\INCLUDE\10.0.17763.0\UCRT\SHARE.H
C:\PROGRAM FILES (X86)\MICROSOFT VISUAL STUDIO\2019\COMMUNITY\VC\TOOLS\MSVC\14.21.27702\INCLUDE\SYSTEM_ERROR
C:\PROGRAM FILES (X86)\MICROSOFT VISUAL STUDIO\2019\COMMUNITY\VC\TOOLS\MSVC\14.21.27702\INCLUDE\CERRNO
C:\PROGRAM FILES (X86)\MICROSOFT VISUAL STUDIO\2019\COMMUNITY\VC\TOOLS\MSVC\14.21.27702\INCLUDE\STDEXCEPT
C:\PROGRAM FILES (X86)\MICROSOFT VISUAL STUDIO\2019\COMMUNITY\VC\TOOLS\MSVC\14.21.27702\INCLUDE\XCALL_ONCE.H
C:\PROGRAM FILES (X86)\MICROSOFT VISUAL STUDIO\2019\COMMUNITY\VC\TOOLS\MSVC\14.21.27702\INCLUDE\XERRC.H
C:\PROGRAM FILES (X86)\MICROSOFT VISUAL STUDIO\2019\COMMUNITY\VC\TOOLS\MSVC\14.21.27702\INCLUDE\XLOCALE
C:\PROGRAM FILES (X86)\MICROSOFT VISUAL STUDIO\2019\COMMUNITY\VC\TOOLS\MSVC\14.21.27702\INCLUDE\MEMORY
C:\PROGRAM FILES (X86)\MICROSOFT VISUAL STUDIO\2019\COMMUNITY\VC\TOOLS\MSVC\14.21.27702\INCLUDE\XFACET
C:\PROGRAM FILES (X86)\MICROSOFT VISUAL STUDIO\2019\COMMUNITY\VC\TOOLS\MSVC\14.21.27702\INCLUDE\XLOCINFO
C:\PROGRAM FILES (X86)\MICROSOFT VISUAL STUDIO\2019\COMMUNITY\VC\TOOLS\MSVC\14.21.27702\INCLUDE\XLOCINFO.H
C:\PROGRAM FILES (X86)\WINDOWS KITS\10\INCLUDE\10.0.17763.0\UCRT\LOCALE.H
C:\PROGRAM FILES (X86)\MICROSOFT VISUAL STUDIO\2019\COMMUNITY\VC\TOOLS\MSVC\14.21.27702\INCLUDE\IOSTREAM
C:\PROGRAM FILES (X86)\MICROSOFT VISUAL STUDIO\2019\COMMUNITY\VC\TOOLS\MSVC\14.21.27702\INCLUDE\IOMANIP
C:\PROGRAM FILES (X86)\MICROSOFT VISUAL STUDIO\2019\COMMUNITY\VC\TOOLS\MSVC\14.21.27702\INCLUDE\XLOCMON
C:\PROGRAM FILES (X86)\MICROSOFT VISUAL STUDIO\2019\COMMUNITY\VC\TOOLS\MSVC\14.21.27702\INCLUDE\XLOCTIME
C:\PROGRAM FILES (X86)\MICROSOFT VISUAL STUDIO\2019\COMMUNITY\VC\TOOLS\MSVC\14.21.27702\INCLUDE\SSTREAM
C:\OGRESDK_1_9\INCLUDE\OGRE\OGREMEMORYALLOCATORCONFIG.H
C:\OGRESDK_1_9\INCLUDE\OGRE\OGREMEMORYALLOCATEDOBJECT.H
C:\OGRESDK_1_9\INCLUDE\OGRE\OGREHEADERPREFIX.H
C:\OGRESDK_1_9\INCLUDE\OGRE\OGREHEADERSUFFIX.H
C:\OGRESDK_1_9\INCLUDE\OGRE\OGREMEMORYSTLALLOCATOR.H
C:\OGRESDK_1_9\INCLUDE\OGRE\OGREMEMORYNEDPOOLING.H
C:\OGRESDK_1_9\INCLUDE\OGRE\OGRESTRING.H
C:\OGRESDK_1_9\INCLUDE\OGRE\OGREMOVABLEOBJECT.H
C:\OGRESDK_1_9\INCLUDE\OGRE\OGRERENDERQUEUE.H
C:\OGRESDK_1_9\INCLUDE\OGRE\OGREITERATORWRAPPERS.H
C:\OGRESDK_1_9\INCLUDE\OGRE\OGREITERATORWRAPPER.H
C:\OGRESDK_1_9\INCLUDE\OGRE\OGREITERATORRANGE.H
C:\OGRESDK_1_9\INCLUDE\OGRE\OGREAXISALIGNEDBOX.H
C:\OGRESDK_1_9\INCLUDE\OGRE\OGREVECTOR3.H
C:\OGRESDK_1_9\INCLUDE\OGRE\OGREMATH.H
C:\OGRESDK_1_9\INCLUDE\OGRE\OGREQUATERNION.H
C:\OGRESDK_1_9\INCLUDE\OGRE\OGREMATRIX4.H
C:\OGRESDK_1_9\INCLUDE\OGRE\OGREMATRIX3.H
C:\OGRESDK_1_9\INCLUDE\OGRE\OGREVECTOR4.H
C:\OGRESDK_1_9\INCLUDE\OGRE\OGREPLANE.H
C:\OGRESDK_1_9\INCLUDE\OGRE\OGRESPHERE.H
C:\OGRESDK_1_9\INCLUDE\OGRE\OGRESHADOWCASTER.H
C:\OGRESDK_1_9\INCLUDE\OGRE\OGRERENDERABLE.H
C:\OGRESDK_1_9\INCLUDE\OGRE\OGRECOMMON.H
C:\OGRESDK_1_9\INCLUDE\OGRE\OGRERENDEROPERATION.H
C:\OGRESDK_1_9\INCLUDE\OGRE\OGREVERTEXINDEXDATA.H
C:\OGRESDK_1_9\INCLUDE\OGRE\OGREHARDWAREVERTEXBUFFER.H
C:\OGRESDK_1_9\INCLUDE\OGRE\OGREHARDWAREBUFFER.H
C:\OGRESDK_1_9\INCLUDE\OGRE\OGREEXCEPTION.H
C:\OGRESDK_1_9\INCLUDE\OGRE\OGRESHAREDPTR.H
C:\OGRESDK_1_9\INCLUDE\OGRE\OGREATOMICSCALAR.H
C:\PROGRAM FILES (X86)\WINDOWS KITS\10\INCLUDE\10.0.17763.0\UCRT\SIGNAL.H
C:\OGRESDK_1_9\INCLUDE\OGRE\OGREPLATFORMINFORMATION.H
C:\OGRESDK_1_9\INCLUDE\OGRE\THREADING\OGRETHREADHEADERS.H
C:\OGRESDK_1_9\INCLUDE\OGRE\THREADING\OGRETHREADDEFINES.H
C:\OGRESDK_1_9\INCLUDE\OGRE\THREADING\OGRETHREADDEFINESNONE.H
C:\OGRESDK_1_9\INCLUDE\OGRE\OGRECOLOURVALUE.H
C:\OGRESDK_1_9\INCLUDE\OGRE\OGREHARDWAREINDEXBUFFER.H
C:\OGRESDK_1_9\INCLUDE\OGRE\OGREMATERIAL.H
C:\OGRESDK_1_9\INCLUDE\OGRE\OGRERESOURCE.H
C:\OGRESDK_1_9\INCLUDE\OGRE\OGRESTRINGINTERFACE.H
C:\OGRESDK_1_9\INCLUDE\OGRE\OGREBLENDMODE.H
C:\OGRESDK_1_9\INCLUDE\OGRE\OGREGPUPROGRAM.H
C:\OGRESDK_1_9\INCLUDE\OGRE\OGRESERIALIZER.H
C:\OGRESDK_1_9\INCLUDE\OGRE\OGREDATASTREAM.H
C:\OGRESDK_1_9\INCLUDE\OGRE\OGREGPUPROGRAMPARAMS.H
C:\OGRESDK_1_9\INCLUDE\OGRE\OGREANY.H
C:\OGRESDK_1_9\INCLUDE\OGRE\OGREUSEROBJECTBINDINGS.H
C:\OGRESDK_1_9\INCLUDE\OGRE\OGREFACTORYOBJ.H
C:\OGRESDK_1_9\INCLUDE\OGRE\OGREANIMABLE.H
C:\OGRESDK_1_9\INCLUDE\OGRE\OGREVECTOR2.H
C:\OGRESDK_1_9\INCLUDE\OGRE\OGRESTRINGVECTOR.H
C:\OGRESDK_1_9\INCLUDE\OGRE\OGREFRUSTUM.H
C:\OGRESDK_1_9\INCLUDE\OGRE\OGREMOVABLEPLANE.H
C:\OGRESDK_1_9\INCLUDE\OGRE\OGRERAY.H
C:\OGRESDK_1_9\INCLUDE\OGRE\OGREPLANEBOUNDEDVOLUME.H
C:\OGRESDK_1_9\INCLUDE\OGRE\OGREENTITY.H
C:\OGRESDK_1_9\INCLUDE\OGRE\OGREHARDWAREBUFFERMANAGER.H
C:\OGRESDK_1_9\INCLUDE\OGRE\OGRESINGLETON.H
C:\OGRESDK_1_9\INCLUDE\OGRE\OGREHARDWARECOUNTERBUFFER.H
C:\OGRESDK_1_9\INCLUDE\OGRE\OGREHARDWAREUNIFORMBUFFER.H
C:\OGRESDK_1_9\INCLUDE\OGRE\OGRERENDERTOVERTEXBUFFER.H
C:\OGRESDK_1_9\INCLUDE\OGRE\OGREMESH.H
C:\OGRESDK_1_9\INCLUDE\OGRE\OGREVERTEXBONEASSIGNMENT.H
C:\OGRESDK_1_9\INCLUDE\OGRE\OGRESKELETON.H
C:\OGRESDK_1_9\INCLUDE\OGRE\OGREANIMATION.H
C:\OGRESDK_1_9\INCLUDE\OGRE\OGREANIMATIONTRACK.H
C:\OGRESDK_1_9\INCLUDE\OGRE\OGRESIMPLESPLINE.H
C:\OGRESDK_1_9\INCLUDE\OGRE\OGREROTATIONALSPLINE.H
C:\OGRESDK_1_9\INCLUDE\OGRE\OGREKEYFRAME.H
C:\OGRESDK_1_9\INCLUDE\OGRE\OGREPOSE.H
C:\OGRESDK_1_9\INCLUDE\OGRE\OGREANIMATIONSTATE.H
C:\OGRESDK_1_9\INCLUDE\OGRE\OGRECONTROLLER.H
C:\OGRESDK_1_9\INCLUDE\OGRE\OGRERESOURCEGROUPMANAGER.H
C:\OGRESDK_1_9\INCLUDE\OGRE\OGREARCHIVE.H
C:\OGRESDK_1_9\INCLUDE\OGRE\OGRELOGMANAGER.H
C:\OGRESDK_1_9\INCLUDE\OGRE\OGRELOG.H
C:\OGRESDK_1_9\INCLUDE\OGRE\OGREROOT.H
C:\OGRESDK_1_9\INCLUDE\OGRE\OGRESCENEMANAGERENUMERATOR.H
C:\OGRESDK_1_9\INCLUDE\OGRE\OGRESCENEMANAGER.H
C:\OGRESDK_1_9\INCLUDE\OGRE\OGRESCENENODE.H
C:\OGRESDK_1_9\INCLUDE\OGRE\OGRENODE.H
C:\OGRESDK_1_9\INCLUDE\OGRE\OGRESCENEQUERY.H
C:\OGRESDK_1_9\INCLUDE\OGRE\OGREAUTOPARAMDATASOURCE.H
C:\OGRESDK_1_9\INCLUDE\OGRE\OGRELIGHT.H
C:\OGRESDK_1_9\INCLUDE\OGRE\OGRESHADOWCAMERASETUP.H
C:\OGRESDK_1_9\INCLUDE\OGRE\OGRERENDERQUEUESORTINGGROUPING.H
C:\OGRESDK_1_9\INCLUDE\OGRE\OGRETECHNIQUE.H
C:\OGRESDK_1_9\INCLUDE\OGRE\OGREPASS.H
C:\OGRESDK_1_9\INCLUDE\OGRE\OGRETEXTUREUNITSTATE.H
C:\OGRESDK_1_9\INCLUDE\OGRE\OGRETEXTURE.H
C:\OGRESDK_1_9\INCLUDE\OGRE\OGREIMAGE.H
C:\OGRESDK_1_9\INCLUDE\OGRE\OGREPIXELFORMAT.H
C:\OGRESDK_1_9\INCLUDE\OGRE\OGRERENDERSYSTEMCAPABILITIES.H
C:\OGRESDK_1_9\INCLUDE\OGRE\OGRESTRINGCONVERTER.H
C:\OGRESDK_1_9\INCLUDE\OGRE\OGRERADIXSORT.H
C:\OGRESDK_1_9\INCLUDE\OGRE\OGRERECTANGLE2D.H
C:\OGRESDK_1_9\INCLUDE\OGRE\OGRESIMPLERENDERABLE.H
C:\OGRESDK_1_9\INCLUDE\OGRE\OGRESHADOWTEXTUREMANAGER.H
C:\OGRESDK_1_9\INCLUDE\OGRE\OGREINSTANCEDGEOMETRY.H
C:\OGRESDK_1_9\INCLUDE\OGRE\OGRESKELETONINSTANCE.H
C:\OGRESDK_1_9\INCLUDE\OGRE\OGREBONE.H
C:\OGRESDK_1_9\INCLUDE\OGRE\OGRELODLISTENER.H
C:\OGRESDK_1_9\INCLUDE\OGRE\OGREINSTANCEMANAGER.H
C:\OGRESDK_1_9\INCLUDE\OGRE\OGRERENDERSYSTEM.H
C:\OGRESDK_1_9\INCLUDE\OGRE\OGREMATERIALMANAGER.H
C:\OGRESDK_1_9\INCLUDE\OGRE\OGRERESOURCEMANAGER.H
C:\OGRESDK_1_9\INCLUDE\OGRE\OGRESCRIPTLOADER.H
C:\OGRESDK_1_9\INCLUDE\OGRE\OGREMATERIALSERIALIZER.H
C:\OGRESDK_1_9\INCLUDE\OGRE\OGRERENDERTARGET.H
C:\OGRESDK_1_9\INCLUDE\OGRE\OGRETEXTUREMANAGER.H
C:\OGRESDK_1_9\INCLUDE\OGRE\OGREVIEWPORT.H
C:\OGRESDK_1_9\INCLUDE\OGRE\OGRETIMER.H
C:\OGRESDK_1_9\INCLUDE\OGRE\WIN32\OGRETIMERIMP.H
C:\PROGRAM FILES (X86)\WINDOWS KITS\10\INCLUDE\10.0.17763.0\UM\WINDOWS.H
C:\PROGRAM FILES (X86)\WINDOWS KITS\10\INCLUDE\10.0.17763.0\SHARED\WINAPIFAMILY.H
C:\PROGRAM FILES (X86)\WINDOWS KITS\10\INCLUDE\10.0.17763.0\SHARED\WINPACKAGEFAMILY.H
C:\PROGRAM FILES (X86)\WINDOWS KITS\10\INCLUDE\10.0.17763.0\SHARED\SDKDDKVER.H
C:\PROGRAM FILES (X86)\MICROSOFT VISUAL STUDIO\2019\COMMUNITY\VC\TOOLS\MSVC\14.21.27702\INCLUDE\EXCPT.H
C:\PROGRAM FILES (X86)\WINDOWS KITS\10\INCLUDE\10.0.17763.0\SHARED\WINDEF.H
C:\PROGRAM FILES (X86)\WINDOWS KITS\10\INCLUDE\10.0.17763.0\SHARED\MINWINDEF.H
C:\PROGRAM FILES (X86)\WINDOWS KITS\10\INCLUDE\10.0.17763.0\SHARED\SPECSTRINGS.H
C:\PROGRAM FILES (X86)\WINDOWS KITS\10\INCLUDE\10.0.17763.0\SHARED\SPECSTRINGS_STRICT.H
C:\PROGRAM FILES (X86)\WINDOWS KITS\10\INCLUDE\10.0.17763.0\SHARED\SPECSTRINGS_UNDEF.H
C:\PROGRAM FILES (X86)\WINDOWS KITS\10\INCLUDE\10.0.17763.0\SHARED\DRIVERSPECS.H
C:\PROGRAM FILES (X86)\WINDOWS KITS\10\INCLUDE\10.0.17763.0\SHARED\SDV_DRIVERSPECS.H
C:\PROGRAM FILES (X86)\WINDOWS KITS\10\INCLUDE\10.0.17763.0\UM\WINNT.H
C:\PROGRAM FILES (X86)\WINDOWS KITS\10\INCLUDE\10.0.17763.0\SHARED\KERNELSPECS.H
C:\PROGRAM FILES (X86)\WINDOWS KITS\10\INCLUDE\10.0.17763.0\SHARED\BASETSD.H
C:\PROGRAM FILES (X86)\WINDOWS KITS\10\INCLUDE\10.0.17763.0\SHARED\GUIDDEF.H
C:\PROGRAM FILES (X86)\WINDOWS KITS\10\INCLUDE\10.0.17763.0\SHARED\PSHPACK4.H
C:\PROGRAM FILES (X86)\WINDOWS KITS\10\INCLUDE\10.0.17763.0\SHARED\POPPACK.H
C:\PROGRAM FILES (X86)\WINDOWS KITS\10\INCLUDE\10.0.17763.0\SHARED\PSHPACK2.H
C:\PROGRAM FILES (X86)\WINDOWS KITS\10\INCLUDE\10.0.17763.0\SHARED\PSHPACK8.H
C:\PROGRAM FILES (X86)\WINDOWS KITS\10\INCLUDE\10.0.17763.0\SHARED\PSHPACK1.H
C:\PROGRAM FILES (X86)\WINDOWS KITS\10\INCLUDE\10.0.17763.0\SHARED\APISET.H
C:\PROGRAM FILES (X86)\WINDOWS KITS\10\INCLUDE\10.0.17763.0\SHARED\KTMTYPES.H
C:\PROGRAM FILES (X86)\WINDOWS KITS\10\INCLUDE\10.0.17763.0\UM\WINBASE.H
C:\PROGRAM FILES (X86)\WINDOWS KITS\10\INCLUDE\10.0.17763.0\SHARED\APISETCCONV.H
C:\PROGRAM FILES (X86)\WINDOWS KITS\10\INCLUDE\10.0.17763.0\UM\MINWINBASE.H
C:\PROGRAM FILES (X86)\WINDOWS KITS\10\INCLUDE\10.0.17763.0\UM\APIQUERY2.H
C:\PROGRAM FILES (X86)\WINDOWS KITS\10\INCLUDE\10.0.17763.0\UM\PROCESSENV.H
C:\PROGRAM FILES (X86)\WINDOWS KITS\10\INCLUDE\10.0.17763.0\UM\FILEAPI.H
C:\PROGRAM FILES (X86)\WINDOWS KITS\10\INCLUDE\10.0.17763.0\UM\DEBUGAPI.H
C:\PROGRAM FILES (X86)\WINDOWS KITS\10\INCLUDE\10.0.17763.0\UM\UTILAPISET.H
C:\PROGRAM FILES (X86)\WINDOWS KITS\10\INCLUDE\10.0.17763.0\UM\HANDLEAPI.H
C:\PROGRAM FILES (X86)\WINDOWS KITS\10\INCLUDE\10.0.17763.0\UM\ERRHANDLINGAPI.H
C:\PROGRAM FILES (X86)\WINDOWS KITS\10\INCLUDE\10.0.17763.0\UM\FIBERSAPI.H
C:\PROGRAM FILES (X86)\WINDOWS KITS\10\INCLUDE\10.0.17763.0\UM\NAMEDPIPEAPI.H
C:\PROGRAM FILES (X86)\WINDOWS KITS\10\INCLUDE\10.0.17763.0\UM\PROFILEAPI.H
C:\PROGRAM FILES (X86)\WINDOWS KITS\10\INCLUDE\10.0.17763.0\UM\HEAPAPI.H
C:\PROGRAM FILES (X86)\WINDOWS KITS\10\INCLUDE\10.0.17763.0\UM\IOAPISET.H
C:\PROGRAM FILES (X86)\WINDOWS KITS\10\INCLUDE\10.0.17763.0\UM\SYNCHAPI.H
C:\PROGRAM FILES (X86)\WINDOWS KITS\10\INCLUDE\10.0.17763.0\UM\INTERLOCKEDAPI.H
C:\PROGRAM FILES (X86)\WINDOWS KITS\10\INCLUDE\10.0.17763.0\UM\PROCESSTHREADSAPI.H
C:\PROGRAM FILES (X86)\WINDOWS KITS\10\INCLUDE\10.0.17763.0\UM\SYSINFOAPI.H
C:\PROGRAM FILES (X86)\WINDOWS KITS\10\INCLUDE\10.0.17763.0\UM\MEMORYAPI.H
C:\PROGRAM FILES (X86)\WINDOWS KITS\10\INCLUDE\10.0.17763.0\UM\ENCLAVEAPI.H
C:\PROGRAM FILES (X86)\WINDOWS KITS\10\INCLUDE\10.0.17763.0\UM\THREADPOOLLEGACYAPISET.H
C:\PROGRAM FILES (X86)\WINDOWS KITS\10\INCLUDE\10.0.17763.0\UM\THREADPOOLAPISET.H
C:\PROGRAM FILES (X86)\WINDOWS KITS\10\INCLUDE\10.0.17763.0\UM\JOBAPI.H
C:\PROGRAM FILES (X86)\WINDOWS KITS\10\INCLUDE\10.0.17763.0\UM\JOBAPI2.H
C:\PROGRAM FILES (X86)\WINDOWS KITS\10\INCLUDE\10.0.17763.0\UM\WOW64APISET.H
C:\PROGRAM FILES (X86)\WINDOWS KITS\10\INCLUDE\10.0.17763.0\UM\LIBLOADERAPI.H
C:\PROGRAM FILES (X86)\WINDOWS KITS\10\INCLUDE\10.0.17763.0\UM\SECURITYBASEAPI.H
C:\PROGRAM FILES (X86)\WINDOWS KITS\10\INCLUDE\10.0.17763.0\UM\NAMESPACEAPI.H
C:\PROGRAM FILES (X86)\WINDOWS KITS\10\INCLUDE\10.0.17763.0\UM\SYSTEMTOPOLOGYAPI.H
C:\PROGRAM FILES (X86)\WINDOWS KITS\10\INCLUDE\10.0.17763.0\UM\PROCESSTOPOLOGYAPI.H
C:\PROGRAM FILES (X86)\WINDOWS KITS\10\INCLUDE\10.0.17763.0\UM\SECURITYAPPCONTAINER.H
C:\PROGRAM FILES (X86)\WINDOWS KITS\10\INCLUDE\10.0.17763.0\UM\REALTIMEAPISET.H
C:\PROGRAM FILES (X86)\WINDOWS KITS\10\INCLUDE\10.0.17763.0\SHARED\WINERROR.H
C:\PROGRAM FILES (X86)\WINDOWS KITS\10\INCLUDE\10.0.17763.0\UM\TIMEZONEAPI.H
C:\PROGRAM FILES (X86)\WINDOWS KITS\10\INCLUDE\10.0.17763.0\UM\WINGDI.H
C:\PROGRAM FILES (X86)\WINDOWS KITS\10\INCLUDE\10.0.17763.0\UM\WINUSER.H
C:\PROGRAM FILES (X86)\WINDOWS KITS\10\INCLUDE\10.0.17763.0\SHARED\TVOUT.H
C:\PROGRAM FILES (X86)\WINDOWS KITS\10\INCLUDE\10.0.17763.0\UM\WINNLS.H
C:\PROGRAM FILES (X86)\WINDOWS KITS\10\INCLUDE\10.0.17763.0\UM\DATETIMEAPI.H
C:\PROGRAM FILES (X86)\WINDOWS KITS\10\INCLUDE\10.0.17763.0\UM\STRINGAPISET.H
C:\PROGRAM FILES (X86)\WINDOWS KITS\10\INCLUDE\10.0.17763.0\UM\WINCON.H
C:\PROGRAM FILES (X86)\WINDOWS KITS\10\INCLUDE\10.0.17763.0\UM\WINCONTYPES.H
C:\PROGRAM FILES (X86)\WINDOWS KITS\10\INCLUDE\10.0.17763.0\UM\CONSOLEAPI.H
C:\PROGRAM FILES (X86)\WINDOWS KITS\10\INCLUDE\10.0.17763.0\UM\CONSOLEAPI2.H
C:\PROGRAM FILES (X86)\WINDOWS KITS\10\INCLUDE\10.0.17763.0\UM\CONSOLEAPI3.H
C:\PROGRAM FILES (X86)\WINDOWS KITS\10\INCLUDE\10.0.17763.0\UM\WINVER.H
C:\PROGRAM FILES (X86)\WINDOWS KITS\10\INCLUDE\10.0.17763.0\UM\VERRSRC.H
C:\PROGRAM FILES (X86)\WINDOWS KITS\10\INCLUDE\10.0.17763.0\UM\WINREG.H
C:\PROGRAM FILES (X86)\WINDOWS KITS\10\INCLUDE\10.0.17763.0\UM\REASON.H
C:\PROGRAM FILES (X86)\WINDOWS KITS\10\INCLUDE\10.0.17763.0\UM\WINNETWK.H
C:\PROGRAM FILES (X86)\WINDOWS KITS\10\INCLUDE\10.0.17763.0\SHARED\WNNC.H
C:\PROGRAM FILES (X86)\WINDOWS KITS\10\INCLUDE\10.0.17763.0\SHARED\STRALIGN.H
C:\PROGRAM FILES (X86)\WINDOWS KITS\10\INCLUDE\10.0.17763.0\UM\WINSVC.H
C:\PROGRAM FILES (X86)\WINDOWS KITS\10\INCLUDE\10.0.17763.0\UM\MCX.H
C:\PROGRAM FILES (X86)\WINDOWS KITS\10\INCLUDE\10.0.17763.0\UM\IMM.H
C:\PROGRAM FILES (X86)\WINDOWS KITS\10\INCLUDE\10.0.17763.0\UM\IME_CMODES.H
C:\OGRESDK_1_9\INCLUDE\OGRE\OGRERENDERTEXTURE.H
C:\OGRESDK_1_9\INCLUDE\OGRE\OGREFRAMELISTENER.H
C:\OGRESDK_1_9\INCLUDE\OGRE\OGRECONFIGOPTIONMAP.H
C:\OGRESDK_1_9\INCLUDE\OGRE\OGRENAMEGENERATOR.H
C:\OGRESDK_1_9\INCLUDE\OGRE\OGRELODSTRATEGYMANAGER.H
C:\OGRESDK_1_9\INCLUDE\OGRE\OGRELODSTRATEGY.H
C:\OGRESDK_1_9\INCLUDE\OGRE\OGREWORKQUEUE.H
C:\OGRESDK_1_9\INCLUDE\OGRE\OGRERENDERWINDOW.H
C:\OGRESDK_1_9\INCLUDE\OGRE\OGRECONFIGFILE.H
C:\OGRESDK_1_9\INCLUDE\OIS\OISEVENTS.H
C:\OGRESDK_1_9\INCLUDE\OIS\OISPREREQS.H
C:\OGRESDK_1_9\INCLUDE\OIS\OISCONFIG.H
C:\OGRESDK_1_9\INCLUDE\OIS\OISINPUTMANAGER.H
C:\OGRESDK_1_9\INCLUDE\OIS\OISKEYBOARD.H
C:\OGRESDK_1_9\INCLUDE\OIS\OISOBJECT.H
C:\OGRESDK_1_9\INCLUDE\OIS\OISINTERFACE.H
C:\OGRESDK_1_9\INCLUDE\OIS\OISMOUSE.H
C:\OGRESDK_1_9\INCLUDE\OGRE\SDKTRAYS.H
C:\OGRESDK_1_9\INCLUDE\OGRE\OGRE.H
C:\OGRESDK_1_9\INCLUDE\OGRE\OGREARCHIVEMANAGER.H
C:\OGRESDK_1_9\INCLUDE\OGRE\OGREBILLBOARDCHAIN.H
C:\OGRESDK_1_9\INCLUDE\OGRE\OGREBILLBOARDSET.H
C:\OGRESDK_1_9\INCLUDE\OGRE\OGRECONTROLLERMANAGER.H
C:\OGRESDK_1_9\INCLUDE\OGRE\OGREPREDEFINEDCONTROLLERS.H
C:\OGRESDK_1_9\INCLUDE\OGRE\OGREGPUPROGRAMMANAGER.H
C:\OGRESDK_1_9\INCLUDE\OGRE\OGREHARDWAREPIXELBUFFER.H
C:\OGRESDK_1_9\INCLUDE\OGRE\OGREHARDWAREOCCLUSIONQUERY.H
C:\OGRESDK_1_9\INCLUDE\OGRE\OGREHIGHLEVELGPUPROGRAM.H
C:\OGRESDK_1_9\INCLUDE\OGRE\OGREHIGHLEVELGPUPROGRAMMANAGER.H
C:\OGRESDK_1_9\INCLUDE\OGRE\OGREINSTANCEBATCH.H
C:\OGRESDK_1_9\INCLUDE\OGRE\OGREINSTANCEDENTITY.H
C:\OGRESDK_1_9\INCLUDE\OGRE\OGREMANUALOBJECT.H
C:\OGRESDK_1_9\INCLUDE\OGRE\OGREMESHMANAGER.H
C:\OGRESDK_1_9\INCLUDE\OGRE\OGREPATCHMESH.H
C:\OGRESDK_1_9\INCLUDE\OGRE\OGREPATCHSURFACE.H
C:\OGRESDK_1_9\INCLUDE\OGRE\OGREMESHSERIALIZER.H
C:\OGRESDK_1_9\INCLUDE\OGRE\OGREMESHSERIALIZERIMPL.H
C:\OGRESDK_1_9\INCLUDE\OGRE\OGREEDGELISTBUILDER.H
C:\OGRESDK_1_9\INCLUDE\OGRE\OGREPARTICLEAFFECTOR.H
C:\OGRESDK_1_9\INCLUDE\OGRE\OGREPARTICLEEMITTER.H
C:\OGRESDK_1_9\INCLUDE\OGRE\OGREPARTICLEEMITTERCOMMANDS.H
C:\OGRESDK_1_9\INCLUDE\OGRE\OGREPARTICLE.H
C:\OGRESDK_1_9\INCLUDE\OGRE\OGREBILLBOARD.H
C:\OGRESDK_1_9\INCLUDE\OGRE\OGREPARTICLESYSTEMMANAGER.H
C:\OGRESDK_1_9\INCLUDE\OGRE\OGREPARTICLESYSTEM.H
C:\OGRESDK_1_9\INCLUDE\OGRE\OGREPARTICLEITERATOR.H
C:\OGRESDK_1_9\INCLUDE\OGRE\OGREPROFILER.H
C:\OGRESDK_1_9\INCLUDE\OGRE\OGRERENDERQUEUEINVOCATION.H
C:\OGRESDK_1_9\INCLUDE\OGRE\OGRERENDERQUEUELISTENER.H
C:\OGRESDK_1_9\INCLUDE\OGRE\OGRERENDEROBJECTLISTENER.H
C:\OGRESDK_1_9\INCLUDE\OGRE\OGRERENDERTARGETLISTENER.H
C:\OGRESDK_1_9\INCLUDE\OGRE\OGRERESOURCEBACKGROUNDQUEUE.H
C:\OGRESDK_1_9\INCLUDE\OGRE\OGRERIBBONTRAIL.H
C:\OGRESDK_1_9\INCLUDE\OGRE\OGRESKELETONMANAGER.H
C:\OGRESDK_1_9\INCLUDE\OGRE\OGRESKELETONSERIALIZER.H
C:\OGRESDK_1_9\INCLUDE\OGRE\OGRESTATICGEOMETRY.H
C:\OGRESDK_1_9\INCLUDE\OGRE\OGRESUBENTITY.H
C:\OGRESDK_1_9\INCLUDE\OGRE\OGRESUBMESH.H
C:\OGRESDK_1_9\INCLUDE\OGRE\OGRECOMPOSITOR.H
C:\OGRESDK_1_9\INCLUDE\OGRE\OGRECOMPOSITORMANAGER.H
C:\OGRESDK_1_9\INCLUDE\OGRE\OGRECOMPOSITIONTECHNIQUE.H
C:\OGRESDK_1_9\INCLUDE\OGRE\OGRECOMPOSITORCHAIN.H
C:\OGRESDK_1_9\INCLUDE\OGRE\OGRECOMPOSITORINSTANCE.H
C:\OGRESDK_1_9\INCLUDE\OGRE\OGRECOMPOSITIONPASS.H
C:\OGRESDK_1_9\INCLUDE\OGRE\OGRECOMPOSITIONTARGETPASS.H
C:\OGRESDK_1_9\INCLUDE\OGRE\OGREWINDOWEVENTUTILITIES.H
C:\OGRESDK_1_9\INCLUDE\OGRE\OGRESHADOWCAMERASETUPFOCUSED.H
C:\OGRESDK_1_9\INCLUDE\OGRE\OGREPOLYGON.H
C:\OGRESDK_1_9\INCLUDE\OGRE\OGRECONVEXBODY.H
C:\OGRESDK_1_9\INCLUDE\OGRE\OGRESHADOWCAMERASETUPLISPSM.H
C:\OGRESDK_1_9\INCLUDE\OGRE\OGRESHADOWCAMERASETUPPLANEOPTIMAL.H
C:\OGRESDK_1_9\INCLUDE\OGRE\OGRESHADOWCAMERASETUPPSSM.H
C:\OGRESDK_1_9\INCLUDE\OGRE\OVERLAY\OGREOVERLAYSYSTEM.H
C:\OGRESDK_1_9\INCLUDE\OGRE\OVERLAY\OGREOVERLAY.H
C:\OGRESDK_1_9\INCLUDE\OGRE\OVERLAY\OGREOVERLAYPREREQUISITES.H
C:\OGRESDK_1_9\INCLUDE\OGRE\OVERLAY\OGREOVERLAYCONTAINER.H
C:\OGRESDK_1_9\INCLUDE\OGRE\OVERLAY\OGREOVERLAYELEMENT.H
C:\OGRESDK_1_9\INCLUDE\OGRE\OGREUTFSTRING.H
C:\PROGRAM FILES (X86)\MICROSOFT VISUAL STUDIO\2019\COMMUNITY\VC\TOOLS\MSVC\14.21.27702\INCLUDE\ITERATOR
C:\OGRESDK_1_9\INCLUDE\OGRE\OVERLAY\OGREOVERLAYELEMENTCOMMANDS.H
C:\OGRESDK_1_9\INCLUDE\OGRE\OVERLAY\OGREOVERLAYMANAGER.H
C:\OGRESDK_1_9\INCLUDE\OGRE\OVERLAY\OGREFONTMANAGER.H
C:\OGRESDK_1_9\INCLUDE\OGRE\OVERLAY\OGREFONT.H
C:\OGRESDK_1_9\INCLUDE\OGRE\OVERLAY\OGREBORDERPANELOVERLAYELEMENT.H
C:\OGRESDK_1_9\INCLUDE\OGRE\OVERLAY\OGREPANELOVERLAYELEMENT.H
C:\OGRESDK_1_9\INCLUDE\OGRE\OVERLAY\OGRETEXTAREAOVERLAYELEMENT.H
C:\OGRESDK_1_9\INCLUDE\OGRE\OVERLAY\OGREOVERLAYELEMENTFACTORY.H
C:\OGRESDK_1_9\INCLUDE\OGRE\INPUTCONTEXT.H
C:\OGRESDK_1_9\INCLUDE\OIS\OIS.H
C:\OGRESDK_1_9\INCLUDE\OIS\OISJOYSTICK.H
C:\OGRESDK_1_9\INCLUDE\OIS\OISMULTITOUCH.H
C:\OGRESDK_1_9\INCLUDE\OIS\OISFACTORYCREATOR.H
C:\OGRESDK_1_9\INCLUDE\OIS\OISEXCEPTION.H
C:\OGRESDK_1_9\INCLUDE\OIS\OISEFFECT.H
C:\OGRESDK_1_9\INCLUDE\OIS\OISFORCEFEEDBACK.H
C:\OGRESDK_1_9\INCLUDE\OGRE\SDKCAMERAMAN.H
C:\USERS\JUSTIN\SOURCE\REPOS\OGRE3D BASE PROJECT\1 - SETUP BASICS\PLANET.H
